batch_run/build_d23/log_K15_inj0.1_1.txt
Configuration: K=15, InjectRate=0.1, Run=1
--- XSIM STDOUT ---
Time resolution is 1 ps
[Stimulus] Loaded 221 syndrome pairs from D:\College\4-2\SoP2\Code\queuebit\verification\stim_errors_d23.txt
[Stimulus] Injection pacing = 100 ppt (0.100 syndromes/cycle)
[FSM d23] Cycle 13: FSM_IDLE → FSM_HAZARD_CHK (fifo_valid=1, collision=x, workers_ready=1111)
[FSM d23] Cycle 14: FSM_HAZARD_CHK → FSM_ISSUE (fifo_valid=0, collision=0, workers_ready=1111)
[FSM d23] Collision check: (5,13) → collision=0
[MATRIX] Lock at (5, 13) - cells set: (4-6, 12-14)
[FSM d23] Cycle 15: FSM_ISSUE → FSM_IDLE (fifo_valid=0, collision=x, workers_ready=1111)
[FSM d23] Lock issued: (5,13) → dispatch to worker
[Dispatcher d23] Cycle 155: Issued syndr (5, 13) to worker[0]
[FSM d23] Cycle 23: FSM_IDLE → FSM_HAZARD_CHK (fifo_valid=1, collision=x, workers_ready=1110)
[FSM d23] Cycle 24: FSM_HAZARD_CHK → FSM_ISSUE (fifo_valid=0, collision=0, workers_ready=1110)
[FSM d23] Collision check: (9,13) → collision=0
[MATRIX] Lock at (9, 13) - cells set: (8-10, 12-14)
[FSM d23] Cycle 25: FSM_ISSUE → FSM_IDLE (fifo_valid=0, collision=x, workers_ready=1110)
[FSM d23] Lock issued: (9,13) → dispatch to worker
[Dispatcher d23] Cycle 255: Issued syndr (9, 13) to worker[1]
[Dispatcher d23] Cycle 305: Worker[0] DONE (active=1, stored_coord=(5,13))
[MATRIX] Release at (5, 13) - cells cleared: (4-6, 12-14)
[FSM d23] Cycle 33: FSM_IDLE → FSM_HAZARD_CHK (fifo_valid=1, collision=x, workers_ready=1101)
[FSM d23] Cycle 34: FSM_HAZARD_CHK → FSM_ISSUE (fifo_valid=0, collision=0, workers_ready=1101)
[FSM d23] Collision check: (5,17) → collision=0
[MATRIX] Lock at (5, 17) - cells set: (4-6, 16-18)
[FSM d23] Cycle 35: FSM_ISSUE → FSM_IDLE (fifo_valid=0, collision=x, workers_ready=1101)
[FSM d23] Lock issued: (5,17) → dispatch to worker
[Dispatcher d23] Cycle 355: Issued syndr (5, 17) to worker[0]
[Dispatcher d23] Cycle 405: Worker[1] DONE (active=1, stored_coord=(9,13))
[MATRIX] Release at (9, 13) - cells cleared: (8-10, 12-14)
[FSM d23] Cycle 43: FSM_IDLE → FSM_HAZARD_CHK (fifo_valid=1, collision=x, workers_ready=1110)
[FSM d23] Cycle 44: FSM_HAZARD_CHK → FSM_ISSUE (fifo_valid=0, collision=0, workers_ready=1110)
[FSM d23] Collision check: (9,17) → collision=0
[MATRIX] Lock at (9, 17) - cells set: (8-10, 16-18)
[FSM d23] Cycle 45: FSM_ISSUE → FSM_IDLE (fifo_valid=0, collision=x, workers_ready=1110)
[FSM d23] Lock issued: (9,17) → dispatch to worker
[Dispatcher d23] Cycle 455: Issued syndr (9, 17) to worker[1]
[Dispatcher d23] Cycle 505: Worker[0] DONE (active=1, stored_coord=(5,17))
[MATRIX] Release at (5, 17) - cells cleared: (4-6, 16-18)
[FSM d23] Cycle 53: FSM_IDLE → FSM_HAZARD_CHK (fifo_valid=1, collision=x, workers_ready=1101)
[FSM d23] Cycle 54: FSM_HAZARD_CHK → FSM_ISSUE (fifo_valid=0, collision=0, workers_ready=1101)
[FSM d23] Collision check: (9,21) → collision=0
[MATRIX] Lock at (9, 21) - cells set: (8-10, 20-22)
[FSM d23] Cycle 55: FSM_ISSUE → FSM_IDLE (fifo_valid=0, collision=x, workers_ready=1101)
[FSM d23] Lock issued: (9,21) → dispatch to worker
[Dispatcher d23] Cycle 555: Issued syndr (9, 21) to worker[0]
[Dispatcher d23] Cycle 605: Worker[1] DONE (active=1, stored_coord=(9,17))
[MATRIX] Release at (9, 17) - cells cleared: (8-10, 16-18)
[FSM d23] Cycle 63: FSM_IDLE → FSM_HAZARD_CHK (fifo_valid=1, collision=x, workers_ready=1110)
[FSM d23] Cycle 64: FSM_HAZARD_CHK → FSM_ISSUE (fifo_valid=0, collision=0, workers_ready=1110)
[FSM d23] Collision check: (14,21) → collision=0
[MATRIX] Lock at (14, 21) - cells set: (13-15, 20-22)
[FSM d23] Cycle 65: FSM_ISSUE → FSM_IDLE (fifo_valid=0, collision=x, workers_ready=1110)
[FSM d23] Lock issued: (14,21) → dispatch to worker
[Dispatcher d23] Cycle 655: Issued syndr (14, 21) to worker[1]
[Dispatcher d23] Cycle 705: Worker[0] DONE (active=1, stored_coord=(9,21))
[MATRIX] Release at (9, 21) - cells cleared: (8-10, 20-22)
[FSM d23] Cycle 73: FSM_IDLE → FSM_HAZARD_CHK (fifo_valid=1, collision=x, workers_ready=1101)
[FSM d23] Cycle 74: FSM_HAZARD_CHK → FSM_ISSUE (fifo_valid=0, collision=0, workers_ready=1101)
[FSM d23] Collision check: (5,25) → collision=0
[MATRIX] Lock at (5, 25) - cells set: (4-6, 24-26)
[FSM d23] Cycle 75: FSM_ISSUE → FSM_IDLE (fifo_valid=0, collision=x, workers_ready=1101)
[FSM d23] Lock issued: (5,25) → dispatch to worker
[Dispatcher d23] Cycle 755: Issued syndr (5, 25) to worker[0]
[Dispatcher d23] Cycle 805: Worker[1] DONE (active=1, stored_coord=(14,21))
[MATRIX] Release at (14, 21) - cells cleared: (13-15, 20-22)
[FSM d23] Cycle 83: FSM_IDLE → FSM_HAZARD_CHK (fifo_valid=1, collision=x, workers_ready=1110)
[FSM d23] Cycle 84: FSM_HAZARD_CHK → FSM_ISSUE (fifo_valid=0, collision=0, workers_ready=1110)
[FSM d23] Collision check: (9,25) → collision=0
[MATRIX] Lock at (9, 25) - cells set: (8-10, 24-26)
[FSM d23] Cycle 85: FSM_ISSUE → FSM_IDLE (fifo_valid=0, collision=x, workers_ready=1110)
[FSM d23] Lock issued: (9,25) → dispatch to worker
[Dispatcher d23] Cycle 855: Issued syndr (9, 25) to worker[1]
[Dispatcher d23] Cycle 905: Worker[0] DONE (active=1, stored_coord=(5,25))
[MATRIX] Release at (5, 25) - cells cleared: (4-6, 24-26)
[FSM d23] Cycle 93: FSM_IDLE → FSM_HAZARD_CHK (fifo_valid=1, collision=x, workers_ready=1101)
[FSM d23] Cycle 94: FSM_HAZARD_CHK → FSM_ISSUE (fifo_valid=0, collision=0, workers_ready=1101)
[FSM d23] Collision check: (32,21) → collision=0
[MATRIX] Lock at (32, 21) - cells set: (31-33, 20-22)
[FSM d23] Cycle 95: FSM_ISSUE → FSM_IDLE (fifo_valid=0, collision=x, workers_ready=1101)
[FSM d23] Lock issued: (32,21) → dispatch to worker
[Dispatcher d23] Cycle 955: Issued syndr (32, 21) to worker[0]
[Dispatcher d23] Cycle 1005: Worker[1] DONE (active=1, stored_coord=(9,25))
[MATRIX] Release at (9, 25) - cells cleared: (8-10, 24-26)
[FSM d23] Cycle 103: FSM_IDLE → FSM_HAZARD_CHK (fifo_valid=1, collision=x, workers_ready=1110)
[FSM d23] Cycle 104: FSM_HAZARD_CHK → FSM_ISSUE (fifo_valid=0, collision=0, workers_ready=1110)
[FSM d23] Collision check: (37,21) → collision=0
[MATRIX] Lock at (37, 21) - cells set: (36-38, 20-22)
[FSM d23] Cycle 105: FSM_ISSUE → FSM_IDLE (fifo_valid=0, collision=x, workers_ready=1110)
[FSM d23] Lock issued: (37,21) → dispatch to worker
[Dispatcher d23] Cycle 1055: Issued syndr (37, 21) to worker[1]
[Dispatcher d23] Cycle 1105: Worker[0] DONE (active=1, stored_coord=(32,21))
[MATRIX] Release at (32, 21) - cells cleared: (31-33, 20-22)
[FSM d23] Cycle 113: FSM_IDLE → FSM_HAZARD_CHK (fifo_valid=1, collision=x, workers_ready=1101)
[FSM d23] Cycle 114: FSM_HAZARD_CHK → FSM_ISSUE (fifo_valid=0, collision=0, workers_ready=1101)
[FSM d23] Collision check: (14,25) → collision=0
[MATRIX] Lock at (14, 25) - cells set: (13-15, 24-26)
[FSM d23] Cycle 115: FSM_ISSUE → FSM_IDLE (fifo_valid=0, collision=x, workers_ready=1101)
[FSM d23] Lock issued: (14,25) → dispatch to worker
[Dispatcher d23] Cycle 1155: Issued syndr (14, 25) to worker[0]
[Dispatcher d23] Cycle 1205: Worker[1] DONE (active=1, stored_coord=(37,21))
[MATRIX] Release at (37, 21) - cells cleared: (36-38, 20-22)
[FSM d23] Cycle 123: FSM_IDLE → FSM_HAZARD_CHK (fifo_valid=1, collision=x, workers_ready=1110)
[FSM d23] Cycle 124: FSM_HAZARD_CHK → FSM_ISSUE (fifo_valid=0, collision=0, workers_ready=1110)
[FSM d23] Collision check: (32,25) → collision=0
[MATRIX] Lock at (32, 25) - cells set: (31-33, 24-26)
[FSM d23] Cycle 125: FSM_ISSUE → FSM_IDLE (fifo_valid=0, collision=x, workers_ready=1110)
[FSM d23] Lock issued: (32,25) → dispatch to worker
[Dispatcher d23] Cycle 1255: Issued syndr (32, 25) to worker[1]
[Dispatcher d23] Cycle 1305: Worker[0] DONE (active=1, stored_coord=(14,25))
[MATRIX] Release at (14, 25) - cells cleared: (13-15, 24-26)
[FSM d23] Cycle 133: FSM_IDLE → FSM_HAZARD_CHK (fifo_valid=1, collision=x, workers_ready=1101)
[FSM d23] Cycle 134: FSM_HAZARD_CHK → FSM_ISSUE (fifo_valid=0, collision=0, workers_ready=1101)
[FSM d23] Collision check: (9,29) → collision=0
[MATRIX] Lock at (9, 29) - cells set: (8-10, 28-30)
[FSM d23] Cycle 135: FSM_ISSUE → FSM_IDLE (fifo_valid=0, collision=x, workers_ready=1101)
[FSM d23] Lock issued: (9,29) → dispatch to worker
[Dispatcher d23] Cycle 1355: Issued syndr (9, 29) to worker[0]
[Dispatcher d23] Cycle 1405: Worker[1] DONE (active=1, stored_coord=(32,25))
[MATRIX] Release at (32, 25) - cells cleared: (31-33, 24-26)
[FSM d23] Cycle 143: FSM_IDLE → FSM_HAZARD_CHK (fifo_valid=1, collision=x, workers_ready=1110)
[FSM d23] Cycle 144: FSM_HAZARD_CHK → FSM_ISSUE (fifo_valid=0, collision=0, workers_ready=1110)
[FSM d23] Collision check: (37,13) → collision=0
[MATRIX] Lock at (37, 13) - cells set: (36-38, 12-14)
[FSM d23] Cycle 145: FSM_ISSUE → FSM_IDLE (fifo_valid=0, collision=x, workers_ready=1110)
[FSM d23] Lock issued: (37,13) → dispatch to worker
[Dispatcher d23] Cycle 1455: Issued syndr (37, 13) to worker[1]
[Dispatcher d23] Cycle 1505: Worker[0] DONE (active=1, stored_coord=(9,29))
[MATRIX] Release at (9, 29) - cells cleared: (8-10, 28-30)
[FSM d23] Cycle 153: FSM_IDLE → FSM_HAZARD_CHK (fifo_valid=1, collision=x, workers_ready=1101)
[FSM d23] Cycle 154: FSM_HAZARD_CHK → FSM_ISSUE (fifo_valid=0, collision=0, workers_ready=1101)
[FSM d23] Collision check: (32,21) → collision=0
[MATRIX] Lock at (32, 21) - cells set: (31-33, 20-22)
[FSM d23] Cycle 155: FSM_ISSUE → FSM_IDLE (fifo_valid=0, collision=x, workers_ready=1101)
[FSM d23] Lock issued: (32,21) → dispatch to worker
[Dispatcher d23] Cycle 1555: Issued syndr (32, 21) to worker[0]
[Dispatcher d23] Cycle 1605: Worker[1] DONE (active=1, stored_coord=(37,13))
[MATRIX] Release at (37, 13) - cells cleared: (36-38, 12-14)
[FSM d23] Cycle 163: FSM_IDLE → FSM_HAZARD_CHK (fifo_valid=1, collision=x, workers_ready=1110)
[FSM d23] Cycle 164: FSM_HAZARD_CHK → FSM_ISSUE (fifo_valid=0, collision=0, workers_ready=1110)
[FSM d23] Collision check: (5,46) → collision=0
[MATRIX] Lock at (5, 46) - cells set: (4-6, 45-46)
[FSM d23] Cycle 165: FSM_ISSUE → FSM_IDLE (fifo_valid=0, collision=x, workers_ready=1110)
[FSM d23] Lock issued: (5,46) → dispatch to worker
[Dispatcher d23] Cycle 1655: Issued syndr (5, 46) to worker[1]
[Dispatcher d23] Cycle 1705: Worker[0] DONE (active=1, stored_coord=(32,21))
[MATRIX] Release at (32, 21) - cells cleared: (31-33, 20-22)
[FSM d23] Cycle 173: FSM_IDLE → FSM_HAZARD_CHK (fifo_valid=1, collision=x, workers_ready=1101)
[FSM d23] Cycle 174: FSM_HAZARD_CHK → FSM_ISSUE (fifo_valid=0, collision=0, workers_ready=1101)
[FSM d23] Collision check: (37,13) → collision=0
[MATRIX] Lock at (37, 13) - cells set: (36-38, 12-14)
[FSM d23] Cycle 175: FSM_ISSUE → FSM_IDLE (fifo_valid=0, collision=x, workers_ready=1101)
[FSM d23] Lock issued: (37,13) → dispatch to worker
[Dispatcher d23] Cycle 1755: Issued syndr (37, 13) to worker[0]
[Dispatcher d23] Cycle 1805: Worker[1] DONE (active=1, stored_coord=(5,46))
[MATRIX] Release at (5, 46) - cells cleared: (4-6, 45-46)
[FSM d23] Cycle 183: FSM_IDLE → FSM_HAZARD_CHK (fifo_valid=1, collision=x, workers_ready=1110)
[FSM d23] Cycle 184: FSM_HAZARD_CHK → FSM_ISSUE (fifo_valid=0, collision=0, workers_ready=1110)
[FSM d23] Collision check: (23,25) → collision=0
[MATRIX] Lock at (23, 25) - cells set: (22-24, 24-26)
[FSM d23] Cycle 185: FSM_ISSUE → FSM_IDLE (fifo_valid=0, collision=x, workers_ready=1110)
[FSM d23] Lock issued: (23,25) → dispatch to worker
[Dispatcher d23] Cycle 1855: Issued syndr (23, 25) to worker[1]
[Dispatcher d23] Cycle 1905: Worker[0] DONE (active=1, stored_coord=(37,13))
[MATRIX] Release at (37, 13) - cells cleared: (36-38, 12-14)
[FSM d23] Cycle 193: FSM_IDLE → FSM_HAZARD_CHK (fifo_valid=1, collision=x, workers_ready=1101)
[FSM d23] Cycle 194: FSM_HAZARD_CHK → FSM_ISSUE (fifo_valid=0, collision=0, workers_ready=1101)
[FSM d23] Collision check: (18,29) → collision=0
[MATRIX] Lock at (18, 29) - cells set: (17-19, 28-30)
[FSM d23] Cycle 195: FSM_ISSUE → FSM_IDLE (fifo_valid=0, collision=x, workers_ready=1101)
[FSM d23] Lock issued: (18,29) → dispatch to worker
[Dispatcher d23] Cycle 1955: Issued syndr (18, 29) to worker[0]
[Dispatcher d23] Cycle 2005: Worker[1] DONE (active=1, stored_coord=(23,25))
[MATRIX] Release at (23, 25) - cells cleared: (22-24, 24-26)
[FSM d23] Cycle 203: FSM_IDLE → FSM_HAZARD_CHK (fifo_valid=1, collision=x, workers_ready=1110)
[FSM d23] Cycle 204: FSM_HAZARD_CHK → FSM_ISSUE (fifo_valid=0, collision=0, workers_ready=1110)
[FSM d23] Collision check: (23,29) → collision=0
[MATRIX] Lock at (23, 29) - cells set: (22-24, 28-30)
[FSM d23] Cycle 205: FSM_ISSUE → FSM_IDLE (fifo_valid=0, collision=x, workers_ready=1110)
[FSM d23] Lock issued: (23,29) → dispatch to worker
[Dispatcher d23] Cycle 2055: Issued syndr (23, 29) to worker[1]
[Dispatcher d23] Cycle 2105: Worker[0] DONE (active=1, stored_coord=(18,29))
[MATRIX] Release at (18, 29) - cells cleared: (17-19, 28-30)
[FSM d23] Cycle 213: FSM_IDLE → FSM_HAZARD_CHK (fifo_valid=1, collision=x, workers_ready=1101)
[FSM d23] Cycle 214: FSM_HAZARD_CHK → FSM_ISSUE (fifo_valid=0, collision=0, workers_ready=1101)
[FSM d23] Collision check: (0,33) → collision=0
[MATRIX] Lock at (0, 33) - cells set: (0-1, 32-34)
[FSM d23] Cycle 215: FSM_ISSUE → FSM_IDLE (fifo_valid=0, collision=x, workers_ready=1101)
[FSM d23] Lock issued: (0,33) → dispatch to worker
[Dispatcher d23] Cycle 2155: Issued syndr (0, 33) to worker[0]
[Dispatcher d23] Cycle 2205: Worker[1] DONE (active=1, stored_coord=(23,29))
[MATRIX] Release at (23, 29) - cells cleared: (22-24, 28-30)
[FSM d23] Cycle 223: FSM_IDLE → FSM_HAZARD_CHK (fifo_valid=1, collision=x, workers_ready=1110)
[FSM d23] Cycle 224: FSM_HAZARD_CHK → FSM_ISSUE (fifo_valid=0, collision=0, workers_ready=1110)
[FSM d23] Collision check: (46,38) → collision=0
[MATRIX] Lock at (46, 38) - cells set: (45-46, 37-39)
[FSM d23] Cycle 225: FSM_ISSUE → FSM_IDLE (fifo_valid=0, collision=x, workers_ready=1110)
[FSM d23] Lock issued: (46,38) → dispatch to worker
[Dispatcher d23] Cycle 2255: Issued syndr (46, 38) to worker[1]
[Dispatcher d23] Cycle 2305: Worker[0] DONE (active=1, stored_coord=(0,33))
[MATRIX] Release at (0, 33) - cells cleared: (0-1, 32-34)
[FSM d23] Cycle 233: FSM_IDLE → FSM_HAZARD_CHK (fifo_valid=1, collision=x, workers_ready=1101)
[FSM d23] Cycle 234: FSM_HAZARD_CHK → FSM_ISSUE (fifo_valid=0, collision=0, workers_ready=1101)
[FSM d23] Collision check: (5,46) → collision=0
[MATRIX] Lock at (5, 46) - cells set: (4-6, 45-46)
[FSM d23] Cycle 235: FSM_ISSUE → FSM_IDLE (fifo_valid=0, collision=x, workers_ready=1101)
[FSM d23] Lock issued: (5,46) → dispatch to worker
[Dispatcher d23] Cycle 2355: Issued syndr (5, 46) to worker[0]
[Dispatcher d23] Cycle 2405: Worker[1] DONE (active=1, stored_coord=(46,38))
[MATRIX] Release at (46, 38) - cells cleared: (45-46, 37-39)
[FSM d23] Cycle 243: FSM_IDLE → FSM_HAZARD_CHK (fifo_valid=1, collision=x, workers_ready=1110)
[FSM d23] Cycle 244: FSM_HAZARD_CHK → FSM_ISSUE (fifo_valid=0, collision=0, workers_ready=1110)
[FSM d23] Collision check: (32,8) → collision=0
[MATRIX] Lock at (32, 8) - cells set: (31-33, 7-9)
[FSM d23] Cycle 245: FSM_ISSUE → FSM_IDLE (fifo_valid=0, collision=x, workers_ready=1110)
[FSM d23] Lock issued: (32,8) → dispatch to worker
[Dispatcher d23] Cycle 2455: Issued syndr (32, 8) to worker[1]
[Dispatcher d23] Cycle 2505: Worker[0] DONE (active=1, stored_coord=(5,46))
[MATRIX] Release at (5, 46) - cells cleared: (4-6, 45-46)
[FSM d23] Cycle 253: FSM_IDLE → FSM_HAZARD_CHK (fifo_valid=1, collision=x, workers_ready=1101)
[FSM d23] Cycle 254: FSM_HAZARD_CHK → FSM_ISSUE (fifo_valid=0, collision=0, workers_ready=1101)
[FSM d23] Collision check: (18,25) → collision=0
[MATRIX] Lock at (18, 25) - cells set: (17-19, 24-26)
[FSM d23] Cycle 255: FSM_ISSUE → FSM_IDLE (fifo_valid=0, collision=x, workers_ready=1101)
[FSM d23] Lock issued: (18,25) → dispatch to worker
[Dispatcher d23] Cycle 2555: Issued syndr (18, 25) to worker[0]
[Dispatcher d23] Cycle 2605: Worker[1] DONE (active=1, stored_coord=(32,8))
[MATRIX] Release at (32, 8) - cells cleared: (31-33, 7-9)
[FSM d23] Cycle 263: FSM_IDLE → FSM_HAZARD_CHK (fifo_valid=1, collision=x, workers_ready=1110)
[FSM d23] Cycle 264: FSM_HAZARD_CHK → FSM_ISSUE (fifo_valid=0, collision=0, workers_ready=1110)
[FSM d23] Collision check: (46,38) → collision=0
[MATRIX] Lock at (46, 38) - cells set: (45-46, 37-39)
[FSM d23] Cycle 265: FSM_ISSUE → FSM_IDLE (fifo_valid=0, collision=x, workers_ready=1110)
[FSM d23] Lock issued: (46,38) → dispatch to worker
[Dispatcher d23] Cycle 2655: Issued syndr (46, 38) to worker[1]
[Dispatcher d23] Cycle 2705: Worker[0] DONE (active=1, stored_coord=(18,25))
[MATRIX] Release at (18, 25) - cells cleared: (17-19, 24-26)
[FSM d23] Cycle 273: FSM_IDLE → FSM_HAZARD_CHK (fifo_valid=1, collision=x, workers_ready=1101)
[FSM d23] Cycle 274: FSM_HAZARD_CHK → FSM_ISSUE (fifo_valid=0, collision=0, workers_ready=1101)
[FSM d23] Collision check: (32,8) → collision=0
[MATRIX] Lock at (32, 8) - cells set: (31-33, 7-9)
[FSM d23] Cycle 275: FSM_ISSUE → FSM_IDLE (fifo_valid=0, collision=x, workers_ready=1101)
[FSM d23] Lock issued: (32,8) → dispatch to worker
[Dispatcher d23] Cycle 2755: Issued syndr (32, 8) to worker[0]
[Dispatcher d23] Cycle 2805: Worker[1] DONE (active=1, stored_coord=(46,38))
[MATRIX] Release at (46, 38) - cells cleared: (45-46, 37-39)
[FSM d23] Cycle 283: FSM_IDLE → FSM_HAZARD_CHK (fifo_valid=1, collision=x, workers_ready=1110)
[FSM d23] Cycle 284: FSM_HAZARD_CHK → FSM_ISSUE (fifo_valid=0, collision=0, workers_ready=1110)
[FSM d23] Collision check: (32,38) → collision=0
[MATRIX] Lock at (32, 38) - cells set: (31-33, 37-39)
[FSM d23] Cycle 285: FSM_ISSUE → FSM_IDLE (fifo_valid=0, collision=x, workers_ready=1110)
[FSM d23] Lock issued: (32,38) → dispatch to worker
[Dispatcher d23] Cycle 2855: Issued syndr (32, 38) to worker[1]
[Dispatcher d23] Cycle 2905: Worker[0] DONE (active=1, stored_coord=(32,8))
[MATRIX] Release at (32, 8) - cells cleared: (31-33, 7-9)
[FSM d23] Cycle 293: FSM_IDLE → FSM_HAZARD_CHK (fifo_valid=1, collision=x, workers_ready=1101)
[FSM d23] Cycle 294: FSM_HAZARD_CHK → FSM_ISSUE (fifo_valid=0, collision=0, workers_ready=1101)
[FSM d23] Collision check: (37,42) → collision=0
[MATRIX] Lock at (37, 42) - cells set: (36-38, 41-43)
[FSM d23] Cycle 295: FSM_ISSUE → FSM_IDLE (fifo_valid=0, collision=x, workers_ready=1101)
[FSM d23] Lock issued: (37,42) → dispatch to worker
[Dispatcher d23] Cycle 2955: Issued syndr (37, 42) to worker[0]
[Dispatcher d23] Cycle 3005: Worker[1] DONE (active=1, stored_coord=(32,38))
[MATRIX] Release at (32, 38) - cells cleared: (31-33, 37-39)
[FSM d23] Cycle 303: FSM_IDLE → FSM_HAZARD_CHK (fifo_valid=1, collision=x, workers_ready=1110)
[FSM d23] Cycle 304: FSM_HAZARD_CHK → FSM_ISSUE (fifo_valid=0, collision=0, workers_ready=1110)
[FSM d23] Collision check: (23,42) → collision=0
[MATRIX] Lock at (23, 42) - cells set: (22-24, 41-43)
[FSM d23] Cycle 305: FSM_ISSUE → FSM_IDLE (fifo_valid=0, collision=x, workers_ready=1110)
[FSM d23] Lock issued: (23,42) → dispatch to worker
[Dispatcher d23] Cycle 3055: Issued syndr (23, 42) to worker[1]
[Dispatcher d23] Cycle 3105: Worker[0] DONE (active=1, stored_coord=(37,42))
[MATRIX] Release at (37, 42) - cells cleared: (36-38, 41-43)
[FSM d23] Cycle 313: FSM_IDLE → FSM_HAZARD_CHK (fifo_valid=1, collision=x, workers_ready=1101)
[FSM d23] Cycle 314: FSM_HAZARD_CHK → FSM_ISSUE (fifo_valid=0, collision=0, workers_ready=1101)
[FSM d23] Collision check: (28,38) → collision=0
[MATRIX] Lock at (28, 38) - cells set: (27-29, 37-39)
[FSM d23] Cycle 315: FSM_ISSUE → FSM_IDLE (fifo_valid=0, collision=x, workers_ready=1101)
[FSM d23] Lock issued: (28,38) → dispatch to worker
[Dispatcher d23] Cycle 3155: Issued syndr (28, 38) to worker[0]
[Dispatcher d23] Cycle 3205: Worker[1] DONE (active=1, stored_coord=(23,42))
[MATRIX] Release at (23, 42) - cells cleared: (22-24, 41-43)
[FSM d23] Cycle 323: FSM_IDLE → FSM_HAZARD_CHK (fifo_valid=1, collision=x, workers_ready=1110)
[FSM d23] Cycle 324: FSM_HAZARD_CHK → FSM_ISSUE (fifo_valid=0, collision=0, workers_ready=1110)
[FSM d23] Collision check: (5,42) → collision=0
[MATRIX] Lock at (5, 42) - cells set: (4-6, 41-43)
[FSM d23] Cycle 325: FSM_ISSUE → FSM_IDLE (fifo_valid=0, collision=x, workers_ready=1110)
[FSM d23] Lock issued: (5,42) → dispatch to worker
[Dispatcher d23] Cycle 3255: Issued syndr (5, 42) to worker[1]
[Dispatcher d23] Cycle 3305: Worker[0] DONE (active=1, stored_coord=(28,38))
[MATRIX] Release at (28, 38) - cells cleared: (27-29, 37-39)
[FSM d23] Cycle 333: FSM_IDLE → FSM_HAZARD_CHK (fifo_valid=1, collision=x, workers_ready=1101)
[FSM d23] Cycle 334: FSM_HAZARD_CHK → FSM_ISSUE (fifo_valid=0, collision=0, workers_ready=1101)
[FSM d23] Collision check: (23,29) → collision=0
[MATRIX] Lock at (23, 29) - cells set: (22-24, 28-30)
[FSM d23] Cycle 335: FSM_ISSUE → FSM_IDLE (fifo_valid=0, collision=x, workers_ready=1101)
[FSM d23] Lock issued: (23,29) → dispatch to worker
[Dispatcher d23] Cycle 3355: Issued syndr (23, 29) to worker[0]
[Dispatcher d23] Cycle 3405: Worker[1] DONE (active=1, stored_coord=(5,42))
[MATRIX] Release at (5, 42) - cells cleared: (4-6, 41-43)
[FSM d23] Cycle 343: FSM_IDLE → FSM_HAZARD_CHK (fifo_valid=1, collision=x, workers_ready=1110)
[FSM d23] Cycle 344: FSM_HAZARD_CHK → FSM_ISSUE (fifo_valid=0, collision=0, workers_ready=1110)
[FSM d23] Collision check: (0,33) → collision=0
[MATRIX] Lock at (0, 33) - cells set: (0-1, 32-34)
[FSM d23] Cycle 345: FSM_ISSUE → FSM_IDLE (fifo_valid=0, collision=x, workers_ready=1110)
[FSM d23] Lock issued: (0,33) → dispatch to worker
[Dispatcher d23] Cycle 3455: Issued syndr (0, 33) to worker[1]
[Dispatcher d23] Cycle 3505: Worker[0] DONE (active=1, stored_coord=(23,29))
[MATRIX] Release at (23, 29) - cells cleared: (22-24, 28-30)
[FSM d23] Cycle 353: FSM_IDLE → FSM_HAZARD_CHK (fifo_valid=1, collision=x, workers_ready=1101)
[FSM d23] Cycle 354: FSM_HAZARD_CHK → FSM_ISSUE (fifo_valid=0, collision=0, workers_ready=1101)
[FSM d23] Collision check: (5,42) → collision=0
[MATRIX] Lock at (5, 42) - cells set: (4-6, 41-43)
[FSM d23] Cycle 355: FSM_ISSUE → FSM_IDLE (fifo_valid=0, collision=x, workers_ready=1101)
[FSM d23] Lock issued: (5,42) → dispatch to worker
[Dispatcher d23] Cycle 3555: Issued syndr (5, 42) to worker[0]
[Dispatcher d23] Cycle 3605: Worker[1] DONE (active=1, stored_coord=(0,33))
[MATRIX] Release at (0, 33) - cells cleared: (0-1, 32-34)
[FSM d23] Cycle 363: FSM_IDLE → FSM_HAZARD_CHK (fifo_valid=1, collision=x, workers_ready=1110)
[FSM d23] Cycle 364: FSM_HAZARD_CHK → FSM_ISSUE (fifo_valid=0, collision=0, workers_ready=1110)
[FSM d23] Collision check: (14,29) → collision=0
[MATRIX] Lock at (14, 29) - cells set: (13-15, 28-30)
[FSM d23] Cycle 365: FSM_ISSUE → FSM_IDLE (fifo_valid=0, collision=x, workers_ready=1110)
[FSM d23] Lock issued: (14,29) → dispatch to worker
[Dispatcher d23] Cycle 3655: Issued syndr (14, 29) to worker[1]
[Dispatcher d23] Cycle 3705: Worker[0] DONE (active=1, stored_coord=(5,42))
[MATRIX] Release at (5, 42) - cells cleared: (4-6, 41-43)
[FSM d23] Cycle 373: FSM_IDLE → FSM_HAZARD_CHK (fifo_valid=1, collision=x, workers_ready=1101)
[FSM d23] Cycle 374: FSM_HAZARD_CHK → FSM_ISSUE (fifo_valid=0, collision=0, workers_ready=1101)
[FSM d23] Collision check: (23,29) → collision=0
[MATRIX] Lock at (23, 29) - cells set: (22-24, 28-30)
[FSM d23] Cycle 375: FSM_ISSUE → FSM_IDLE (fifo_valid=0, collision=x, workers_ready=1101)
[FSM d23] Lock issued: (23,29) → dispatch to worker
[Dispatcher d23] Cycle 3755: Issued syndr (23, 29) to worker[0]
[Dispatcher d23] Cycle 3805: Worker[1] DONE (active=1, stored_coord=(14,29))
[MATRIX] Release at (14, 29) - cells cleared: (13-15, 28-30)
[FSM d23] Cycle 383: FSM_IDLE → FSM_HAZARD_CHK (fifo_valid=1, collision=x, workers_ready=1110)
[FSM d23] Cycle 384: FSM_HAZARD_CHK → FSM_ISSUE (fifo_valid=0, collision=0, workers_ready=1110)
[FSM d23] Collision check: (0,33) → collision=0
[MATRIX] Lock at (0, 33) - cells set: (0-1, 32-34)
[FSM d23] Cycle 385: FSM_ISSUE → FSM_IDLE (fifo_valid=0, collision=x, workers_ready=1110)
[FSM d23] Lock issued: (0,33) → dispatch to worker
[Dispatcher d23] Cycle 3855: Issued syndr (0, 33) to worker[1]
[Dispatcher d23] Cycle 3905: Worker[0] DONE (active=1, stored_coord=(23,29))
[MATRIX] Release at (23, 29) - cells cleared: (22-24, 28-30)
[FSM d23] Cycle 393: FSM_IDLE → FSM_HAZARD_CHK (fifo_valid=1, collision=x, workers_ready=1101)
[FSM d23] Cycle 394: FSM_HAZARD_CHK → FSM_ISSUE (fifo_valid=0, collision=0, workers_ready=1101)
[FSM d23] Collision check: (14,29) → collision=0
[MATRIX] Lock at (14, 29) - cells set: (13-15, 28-30)
[FSM d23] Cycle 395: FSM_ISSUE → FSM_IDLE (fifo_valid=0, collision=x, workers_ready=1101)
[FSM d23] Lock issued: (14,29) → dispatch to worker
[Dispatcher d23] Cycle 3955: Issued syndr (14, 29) to worker[0]
[Dispatcher d23] Cycle 4005: Worker[1] DONE (active=1, stored_coord=(0,33))
[MATRIX] Release at (0, 33) - cells cleared: (0-1, 32-34)
[FSM d23] Cycle 403: FSM_IDLE → FSM_HAZARD_CHK (fifo_valid=1, collision=x, workers_ready=1110)
[FSM d23] Cycle 404: FSM_HAZARD_CHK → FSM_ISSUE (fifo_valid=0, collision=0, workers_ready=1110)
[FSM d23] Collision check: (14,25) → collision=0
[MATRIX] Lock at (14, 25) - cells set: (13-15, 24-26)
