batch_run/build_d11/log_K10_inj0.1_2.txt
Configuration: K=10, InjectRate=0.1, Run=2
--- XSIM STDOUT ---
Time resolution is 1 ps
[Stimulus] Loaded 221 syndrome pairs from D:\College\4-2\SoP2\Code\queuebit\verification\stim_errors.txt
[FSM] Cycle 12: FSM_IDLE → FSM_HAZARD_CHK (fifo_valid=1, collision=x, workers_ready=1111)
[FSM] Cycle 13: FSM_HAZARD_CHK → FSM_ISSUE (fifo_valid=0, collision=0, workers_ready=1111)
[FSM] Collision check: (2,6) → collision=0
[MATRIX] Lock at (2, 6) - cells set: (1-3, 5-7)
[FSM] Cycle 14: FSM_ISSUE → FSM_IDLE (fifo_valid=0, collision=x, workers_ready=1111)
[FSM] Lock issued: (2,6) → dispatch to worker
[Dispatcher] Cycle 145: Issued syndr (2, 6) to worker[0]
[FSM] Cycle 22: FSM_IDLE → FSM_HAZARD_CHK (fifo_valid=1, collision=x, workers_ready=1110)
[FSM] Cycle 23: FSM_HAZARD_CHK → FSM_STALL (fifo_valid=0, collision=1, workers_ready=1110)
[FSM] Collision check: (4,6) → collision=1
[Dispatcher] Cycle 245: Worker[0] DONE (active=1, stored_coord=(2,6))
[MATRIX] Release at (2, 6) - cells cleared: (1-3, 5-7)
[FSM] Cycle 27: FSM_STALL → FSM_HAZARD_CHK (fifo_valid=0, collision=x, workers_ready=1111)
[FSM] Cycle 28: FSM_HAZARD_CHK → FSM_ISSUE (fifo_valid=0, collision=0, workers_ready=1111)
[FSM] Collision check: (4,6) → collision=0
[MATRIX] Lock at (4, 6) - cells set: (3-5, 5-7)
[FSM] Cycle 29: FSM_ISSUE → FSM_IDLE (fifo_valid=0, collision=x, workers_ready=1111)
[FSM] Lock issued: (4,6) → dispatch to worker
[Dispatcher] Cycle 295: Issued syndr (4, 6) to worker[0]
[FSM] Cycle 32: FSM_IDLE → FSM_HAZARD_CHK (fifo_valid=1, collision=x, workers_ready=1110)
[FSM] Cycle 33: FSM_HAZARD_CHK → FSM_STALL (fifo_valid=0, collision=1, workers_ready=1110)
[FSM] Collision check: (2,8) → collision=1
[FSM] Cycle 34: FSM_STALL → FSM_HAZARD_CHK (fifo_valid=0, collision=x, workers_ready=1110)
[FSM] Cycle 35: FSM_HAZARD_CHK → FSM_STALL (fifo_valid=0, collision=1, workers_ready=1110)
[FSM] Collision check: (2,8) → collision=1
[FSM] Cycle 36: FSM_STALL → FSM_HAZARD_CHK (fifo_valid=0, collision=x, workers_ready=1110)
[FSM] Cycle 37: FSM_HAZARD_CHK → FSM_STALL (fifo_valid=0, collision=1, workers_ready=1110)
[FSM] Collision check: (2,8) → collision=1
[FSM] Cycle 38: FSM_STALL → FSM_HAZARD_CHK (fifo_valid=0, collision=x, workers_ready=1110)
[FSM] Cycle 39: FSM_HAZARD_CHK → FSM_STALL (fifo_valid=0, collision=1, workers_ready=1110)
[FSM] Collision check: (2,8) → collision=1
[Dispatcher] Cycle 395: Worker[0] DONE (active=1, stored_coord=(4,6))
[MATRIX] Release at (4, 6) - cells cleared: (3-5, 5-7)
[FSM] Cycle 40: FSM_STALL → FSM_HAZARD_CHK (fifo_valid=0, collision=x, workers_ready=1111)
[FSM] Cycle 41: FSM_HAZARD_CHK → FSM_ISSUE (fifo_valid=0, collision=0, workers_ready=1111)
[FSM] Collision check: (2,8) → collision=0
[MATRIX] Lock at (2, 8) - cells set: (1-3, 7-9)
[FSM] Cycle 42: FSM_ISSUE → FSM_HAZARD_CHK (fifo_valid=1, collision=x, workers_ready=1111)
[FSM] Lock issued: (2,8) → dispatch to worker
[Dispatcher] Cycle 425: Issued syndr (2, 8) to worker[0]
[FSM] Cycle 43: FSM_HAZARD_CHK → FSM_STALL (fifo_valid=0, collision=1, workers_ready=1110)
[FSM] Collision check: (4,8) → collision=1
[FSM] Cycle 44: FSM_STALL → FSM_HAZARD_CHK (fifo_valid=0, collision=x, workers_ready=1110)
[FSM] Cycle 45: FSM_HAZARD_CHK → FSM_STALL (fifo_valid=0, collision=1, workers_ready=1110)
[FSM] Collision check: (4,8) → collision=1
[FSM] Cycle 46: FSM_STALL → FSM_HAZARD_CHK (fifo_valid=0, collision=x, workers_ready=1110)
[FSM] Cycle 47: FSM_HAZARD_CHK → FSM_STALL (fifo_valid=0, collision=1, workers_ready=1110)
[FSM] Collision check: (4,8) → collision=1
[FSM] Cycle 48: FSM_STALL → FSM_HAZARD_CHK (fifo_valid=0, collision=x, workers_ready=1110)
[FSM] Cycle 49: FSM_HAZARD_CHK → FSM_STALL (fifo_valid=0, collision=1, workers_ready=1110)
[FSM] Collision check: (4,8) → collision=1
[FSM] Cycle 50: FSM_STALL → FSM_HAZARD_CHK (fifo_valid=0, collision=x, workers_ready=1110)
[FSM] Cycle 51: FSM_HAZARD_CHK → FSM_STALL (fifo_valid=0, collision=1, workers_ready=1110)
[FSM] Collision check: (4,8) → collision=1
[Dispatcher] Cycle 525: Worker[0] DONE (active=1, stored_coord=(2,8))
[MATRIX] Release at (2, 8) - cells cleared: (1-3, 7-9)
[FSM] Cycle 55: FSM_STALL → FSM_HAZARD_CHK (fifo_valid=1, collision=x, workers_ready=1111)
[FSM] Cycle 56: FSM_HAZARD_CHK → FSM_ISSUE (fifo_valid=1, collision=0, workers_ready=1111)
[FSM] Collision check: (4,8) → collision=0
[MATRIX] Lock at (4, 8) - cells set: (3-5, 7-9)
[FSM] Cycle 57: FSM_ISSUE → FSM_HAZARD_CHK (fifo_valid=1, collision=x, workers_ready=1111)
[FSM] Lock issued: (4,8) → dispatch to worker
[Dispatcher] Cycle 575: Issued syndr (4, 8) to worker[0]
[FSM] Cycle 58: FSM_HAZARD_CHK → FSM_STALL (fifo_valid=0, collision=1, workers_ready=1110)
[FSM] Collision check: (4,10) → collision=1
[FSM] Cycle 59: FSM_STALL → FSM_HAZARD_CHK (fifo_valid=0, collision=x, workers_ready=1110)
[FSM] Cycle 60: FSM_HAZARD_CHK → FSM_STALL (fifo_valid=0, collision=1, workers_ready=1110)
[FSM] Collision check: (4,10) → collision=1
[FSM] Cycle 61: FSM_STALL → FSM_HAZARD_CHK (fifo_valid=0, collision=x, workers_ready=1110)
[FSM] Cycle 62: FSM_HAZARD_CHK → FSM_STALL (fifo_valid=1, collision=1, workers_ready=1110)
[FSM] Collision check: (4,10) → collision=1
[FSM] Cycle 63: FSM_STALL → FSM_HAZARD_CHK (fifo_valid=1, collision=x, workers_ready=1110)
[FSM] Cycle 64: FSM_HAZARD_CHK → FSM_STALL (fifo_valid=1, collision=1, workers_ready=1110)
[FSM] Collision check: (4,10) → collision=1
[FSM] Cycle 65: FSM_STALL → FSM_HAZARD_CHK (fifo_valid=1, collision=x, workers_ready=1110)
[FSM] Cycle 66: FSM_HAZARD_CHK → FSM_STALL (fifo_valid=1, collision=1, workers_ready=1110)
[FSM] Collision check: (4,10) → collision=1
[Dispatcher] Cycle 675: Worker[0] DONE (active=1, stored_coord=(4,8))
[MATRIX] Release at (4, 8) - cells cleared: (3-5, 7-9)
[FSM] Cycle 70: FSM_STALL → FSM_HAZARD_CHK (fifo_valid=1, collision=x, workers_ready=1111)
[FSM] Cycle 71: FSM_HAZARD_CHK → FSM_ISSUE (fifo_valid=1, collision=0, workers_ready=1111)
[FSM] Collision check: (4,10) → collision=0
[MATRIX] Lock at (4, 10) - cells set: (3-5, 9-11)
[FSM] Cycle 72: FSM_ISSUE → FSM_HAZARD_CHK (fifo_valid=1, collision=x, workers_ready=1111)
[FSM] Lock issued: (4,10) → dispatch to worker
[Dispatcher] Cycle 725: Issued syndr (4, 10) to worker[0]
[FSM] Cycle 73: FSM_HAZARD_CHK → FSM_STALL (fifo_valid=1, collision=1, workers_ready=1110)
[FSM] Collision check: (6,10) → collision=1
[FSM] Cycle 74: FSM_STALL → FSM_HAZARD_CHK (fifo_valid=1, collision=x, workers_ready=1110)
[FSM] Cycle 75: FSM_HAZARD_CHK → FSM_STALL (fifo_valid=1, collision=1, workers_ready=1110)
[FSM] Collision check: (6,10) → collision=1
[FSM] Cycle 76: FSM_STALL → FSM_HAZARD_CHK (fifo_valid=1, collision=x, workers_ready=1110)
[FSM] Cycle 77: FSM_HAZARD_CHK → FSM_STALL (fifo_valid=1, collision=1, workers_ready=1110)
[FSM] Collision check: (6,10) → collision=1
[FSM] Cycle 78: FSM_STALL → FSM_HAZARD_CHK (fifo_valid=1, collision=x, workers_ready=1110)
[FSM] Cycle 79: FSM_HAZARD_CHK → FSM_STALL (fifo_valid=1, collision=1, workers_ready=1110)
[FSM] Collision check: (6,10) → collision=1
[FSM] Cycle 80: FSM_STALL → FSM_HAZARD_CHK (fifo_valid=1, collision=x, workers_ready=1110)
[FSM] Cycle 81: FSM_HAZARD_CHK → FSM_STALL (fifo_valid=1, collision=1, workers_ready=1110)
[FSM] Collision check: (6,10) → collision=1
[Dispatcher] Cycle 825: Worker[0] DONE (active=1, stored_coord=(4,10))
[MATRIX] Release at (4, 10) - cells cleared: (3-5, 9-11)
[FSM] Cycle 85: FSM_STALL → FSM_HAZARD_CHK (fifo_valid=1, collision=x, workers_ready=1111)
[FSM] Cycle 86: FSM_HAZARD_CHK → FSM_ISSUE (fifo_valid=1, collision=0, workers_ready=1111)
[FSM] Collision check: (6,10) → collision=0
[MATRIX] Lock at (6, 10) - cells set: (5-7, 9-11)
[FSM] Cycle 87: FSM_ISSUE → FSM_HAZARD_CHK (fifo_valid=1, collision=x, workers_ready=1111)
[FSM] Lock issued: (6,10) → dispatch to worker
[Dispatcher] Cycle 875: Issued syndr (6, 10) to worker[0]
[FSM] Cycle 88: FSM_HAZARD_CHK → FSM_ISSUE (fifo_valid=1, collision=0, workers_ready=1110)
[FSM] Collision check: (2,12) → collision=0
[MATRIX] Lock at (2, 12) - cells set: (1-3, 11-13)
[FSM] Cycle 89: FSM_ISSUE → FSM_HAZARD_CHK (fifo_valid=1, collision=x, workers_ready=1110)
[FSM] Lock issued: (2,12) → dispatch to worker
[Dispatcher] Cycle 895: Issued syndr (2, 12) to worker[1]
[FSM] Cycle 90: FSM_HAZARD_CHK → FSM_STALL (fifo_valid=0, collision=1, workers_ready=1100)
[FSM] Collision check: (4,12) → collision=1
[FSM] Cycle 91: FSM_STALL → FSM_HAZARD_CHK (fifo_valid=0, collision=x, workers_ready=1100)
[FSM] Cycle 92: FSM_HAZARD_CHK → FSM_STALL (fifo_valid=1, collision=1, workers_ready=1100)
[FSM] Collision check: (4,12) → collision=1
[FSM] Cycle 93: FSM_STALL → FSM_HAZARD_CHK (fifo_valid=1, collision=x, workers_ready=1100)
[FSM] Cycle 94: FSM_HAZARD_CHK → FSM_STALL (fifo_valid=1, collision=1, workers_ready=1100)
[FSM] Collision check: (4,12) → collision=1
[FSM] Cycle 95: FSM_STALL → FSM_HAZARD_CHK (fifo_valid=1, collision=x, workers_ready=1100)
[FSM] Cycle 96: FSM_HAZARD_CHK → FSM_STALL (fifo_valid=1, collision=1, workers_ready=1100)
[FSM] Collision check: (4,12) → collision=1
[Dispatcher] Cycle 975: Worker[0] DONE (active=1, stored_coord=(6,10))
[MATRIX] Release at (6, 10) - cells cleared: (5-7, 9-11)
[Dispatcher] Cycle 995: Worker[1] DONE (active=1, stored_coord=(2,12))
[MATRIX] Release at (2, 12) - cells cleared: (1-3, 11-13)
[FSM] Cycle 100: FSM_STALL → FSM_HAZARD_CHK (fifo_valid=1, collision=x, workers_ready=1111)
[FSM] Cycle 101: FSM_HAZARD_CHK → FSM_ISSUE (fifo_valid=1, collision=0, workers_ready=1111)
[FSM] Collision check: (4,12) → collision=0
[MATRIX] Lock at (4, 12) - cells set: (3-5, 11-13)
[FSM] Cycle 102: FSM_ISSUE → FSM_HAZARD_CHK (fifo_valid=1, collision=x, workers_ready=1111)
[FSM] Lock issued: (4,12) → dispatch to worker
[Dispatcher] Cycle 1025: Issued syndr (4, 12) to worker[0]
[FSM] Cycle 103: FSM_HAZARD_CHK → FSM_ISSUE (fifo_valid=1, collision=0, workers_ready=1110)
[FSM] Collision check: (14,10) → collision=0
[MATRIX] Lock at (14, 10) - cells set: (13-15, 9-11)
[FSM] Cycle 104: FSM_ISSUE → FSM_HAZARD_CHK (fifo_valid=1, collision=x, workers_ready=1110)
[FSM] Lock issued: (14,10) → dispatch to worker
[Dispatcher] Cycle 1045: Issued syndr (14, 10) to worker[1]
[FSM] Cycle 105: FSM_HAZARD_CHK → FSM_STALL (fifo_valid=0, collision=1, workers_ready=1100)
[FSM] Collision check: (16,10) → collision=1
[FSM] Cycle 106: FSM_STALL → FSM_HAZARD_CHK (fifo_valid=0, collision=x, workers_ready=1100)
[FSM] Cycle 107: FSM_HAZARD_CHK → FSM_STALL (fifo_valid=0, collision=1, workers_ready=1100)
[FSM] Collision check: (16,10) → collision=1
[FSM] Cycle 108: FSM_STALL → FSM_HAZARD_CHK (fifo_valid=0, collision=x, workers_ready=1100)
[FSM] Cycle 109: FSM_HAZARD_CHK → FSM_STALL (fifo_valid=0, collision=1, workers_ready=1100)
[FSM] Collision check: (16,10) → collision=1
[FSM] Cycle 110: FSM_STALL → FSM_HAZARD_CHK (fifo_valid=0, collision=x, workers_ready=1100)
[FSM] Cycle 111: FSM_HAZARD_CHK → FSM_STALL (fifo_valid=0, collision=1, workers_ready=1100)
[FSM] Collision check: (16,10) → collision=1
[Dispatcher] Cycle 1125: Worker[0] DONE (active=1, stored_coord=(4,12))
[MATRIX] Release at (4, 12) - cells cleared: (3-5, 11-13)
[Dispatcher] Cycle 1145: Worker[1] DONE (active=1, stored_coord=(14,10))
[MATRIX] Release at (14, 10) - cells cleared: (13-15, 9-11)
[FSM] Cycle 115: FSM_STALL → FSM_HAZARD_CHK (fifo_valid=1, collision=x, workers_ready=1111)
[FSM] Cycle 116: FSM_HAZARD_CHK → FSM_ISSUE (fifo_valid=1, collision=0, workers_ready=1111)
[FSM] Collision check: (16,10) → collision=0
[MATRIX] Lock at (16, 10) - cells set: (15-17, 9-11)
[FSM] Cycle 117: FSM_ISSUE → FSM_HAZARD_CHK (fifo_valid=1, collision=x, workers_ready=1111)
[FSM] Lock issued: (16,10) → dispatch to worker
[Dispatcher] Cycle 1175: Issued syndr (16, 10) to worker[0]
[FSM] Cycle 118: FSM_HAZARD_CHK → FSM_ISSUE (fifo_valid=0, collision=0, workers_ready=1110)
[FSM] Collision check: (6,12) → collision=0
[MATRIX] Lock at (6, 12) - cells set: (5-7, 11-13)
[FSM] Cycle 119: FSM_ISSUE → FSM_IDLE (fifo_valid=0, collision=x, workers_ready=1110)
[FSM] Lock issued: (6,12) → dispatch to worker
[Dispatcher] Cycle 1195: Issued syndr (6, 12) to worker[1]
[FSM] Cycle 122: FSM_IDLE → FSM_HAZARD_CHK (fifo_valid=1, collision=x, workers_ready=1100)
[FSM] Cycle 123: FSM_HAZARD_CHK → FSM_STALL (fifo_valid=0, collision=1, workers_ready=1100)
[FSM] Collision check: (14,12) → collision=1
[FSM] Cycle 124: FSM_STALL → FSM_HAZARD_CHK (fifo_valid=0, collision=x, workers_ready=1100)
[FSM] Cycle 125: FSM_HAZARD_CHK → FSM_STALL (fifo_valid=0, collision=1, workers_ready=1100)
[FSM] Collision check: (14,12) → collision=1
[FSM] Cycle 126: FSM_STALL → FSM_HAZARD_CHK (fifo_valid=0, collision=x, workers_ready=1100)
[FSM] Cycle 127: FSM_HAZARD_CHK → FSM_STALL (fifo_valid=0, collision=1, workers_ready=1100)
[FSM] Collision check: (14,12) → collision=1
[Dispatcher] Cycle 1275: Worker[0] DONE (active=1, stored_coord=(16,10))
[MATRIX] Release at (16, 10) - cells cleared: (15-17, 9-11)
[FSM] Cycle 128: FSM_STALL → FSM_HAZARD_CHK (fifo_valid=0, collision=x, workers_ready=1101)
[FSM] Cycle 129: FSM_HAZARD_CHK → FSM_ISSUE (fifo_valid=0, collision=0, workers_ready=1101)
[FSM] Collision check: (14,12) → collision=0
[Dispatcher] Cycle 1295: Worker[1] DONE (active=1, stored_coord=(6,12))
[MATRIX] Lock at (14, 12) - cells set: (13-15, 11-13)
[MATRIX] Release at (6, 12) - cells cleared: (5-7, 11-13)
Warning: [MATRIX] Both LOCK and RELEASE asserted same cycle - lock takes priority!
Time: 1305 ns  Iteration: 0  Process: /tb_dispatcher_integration(WORKER_LATENCY=10,INJECT_RATE_PPT=100)/dut/matrix_inst/Always133_26  Scope: tb_dispatcher_integration(WORKER_LATENCY=10,INJECT_RATE_PPT=100).dut.matrix_inst  File: D:/College/4-2/SoP2/Code/queuebit/rtl/tracking_matrix.sv Line: 153
[FSM] Cycle 130: FSM_ISSUE → FSM_IDLE (fifo_valid=0, collision=x, workers_ready=1111)
[FSM] Lock issued: (14,12) → dispatch to worker
[Dispatcher] Cycle 1305: Issued syndr (14, 12) to worker[0]
[FSM] Cycle 132: FSM_IDLE → FSM_HAZARD_CHK (fifo_valid=1, collision=x, workers_ready=1110)
[FSM] Cycle 133: FSM_HAZARD_CHK → FSM_ISSUE (fifo_valid=0, collision=0, workers_ready=1110)
[FSM] Collision check: (4,14) → collision=0
[MATRIX] Lock at (4, 14) - cells set: (3-5, 13-15)
[FSM] Cycle 134: FSM_ISSUE → FSM_IDLE (fifo_valid=0, collision=x, workers_ready=1110)
[FSM] Lock issued: (4,14) → dispatch to worker
[Dispatcher] Cycle 1345: Issued syndr (4, 14) to worker[1]
[Dispatcher] Cycle 1405: Worker[0] DONE (active=1, stored_coord=(14,12))
[MATRIX] Release at (14, 12) - cells cleared: (13-15, 11-13)
[FSM] Cycle 142: FSM_IDLE → FSM_HAZARD_CHK (fifo_valid=1, collision=x, workers_ready=1101)
[FSM] Cycle 143: FSM_HAZARD_CHK → FSM_ISSUE (fifo_valid=0, collision=0, workers_ready=1101)
[FSM] Collision check: (16,6) → collision=0
[MATRIX] Lock at (16, 6) - cells set: (15-17, 5-7)
[FSM] Cycle 144: FSM_ISSUE → FSM_IDLE (fifo_valid=0, collision=x, workers_ready=1101)
[FSM] Lock issued: (16,6) → dispatch to worker
[Dispatcher] Cycle 1445: Issued syndr (16, 6) to worker[0]
[Dispatcher] Cycle 1445: Worker[1] DONE (active=1, stored_coord=(4,14))
[MATRIX] Release at (4, 14) - cells cleared: (3-5, 13-15)
[FSM] Cycle 152: FSM_IDLE → FSM_HAZARD_CHK (fifo_valid=1, collision=x, workers_ready=1110)
[FSM] Cycle 153: FSM_HAZARD_CHK → FSM_ISSUE (fifo_valid=0, collision=0, workers_ready=1110)
[FSM] Collision check: (14,10) → collision=0
[MATRIX] Lock at (14, 10) - cells set: (13-15, 9-11)
[FSM] Cycle 154: FSM_ISSUE → FSM_IDLE (fifo_valid=0, collision=x, workers_ready=1110)
[FSM] Lock issued: (14,10) → dispatch to worker
[Dispatcher] Cycle 1545: Issued syndr (14, 10) to worker[1]
[Dispatcher] Cycle 1545: Worker[0] DONE (active=1, stored_coord=(16,6))
[MATRIX] Release at (16, 6) - cells cleared: (15-17, 5-7)
[FSM] Cycle 162: FSM_IDLE → FSM_HAZARD_CHK (fifo_valid=1, collision=x, workers_ready=1101)
[FSM] Cycle 163: FSM_HAZARD_CHK → FSM_ISSUE (fifo_valid=0, collision=0, workers_ready=1101)
[FSM] Collision check: (2,22) → collision=0
[MATRIX] Lock at (2, 22) - cells set: (1-3, 21-22)
[FSM] Cycle 164: FSM_ISSUE → FSM_IDLE (fifo_valid=0, collision=x, workers_ready=1101)
[FSM] Lock issued: (2,22) → dispatch to worker
[Dispatcher] Cycle 1645: Issued syndr (2, 22) to worker[0]
[Dispatcher] Cycle 1645: Worker[1] DONE (active=1, stored_coord=(14,10))
[MATRIX] Release at (14, 10) - cells cleared: (13-15, 9-11)
[FSM] Cycle 172: FSM_IDLE → FSM_HAZARD_CHK (fifo_valid=1, collision=x, workers_ready=1110)
[FSM] Cycle 173: FSM_HAZARD_CHK → FSM_ISSUE (fifo_valid=0, collision=0, workers_ready=1110)
[FSM] Collision check: (16,6) → collision=0
[MATRIX] Lock at (16, 6) - cells set: (15-17, 5-7)
[FSM] Cycle 174: FSM_ISSUE → FSM_IDLE (fifo_valid=0, collision=x, workers_ready=1110)
[FSM] Lock issued: (16,6) → dispatch to worker
[Dispatcher] Cycle 1745: Issued syndr (16, 6) to worker[1]
[Dispatcher] Cycle 1745: Worker[0] DONE (active=1, stored_coord=(2,22))
[MATRIX] Release at (2, 22) - cells cleared: (1-3, 21-22)
[FSM] Cycle 182: FSM_IDLE → FSM_HAZARD_CHK (fifo_valid=1, collision=x, workers_ready=1101)
[FSM] Cycle 183: FSM_HAZARD_CHK → FSM_ISSUE (fifo_valid=0, collision=0, workers_ready=1101)
[FSM] Collision check: (10,12) → collision=0
[MATRIX] Lock at (10, 12) - cells set: (9-11, 11-13)
[FSM] Cycle 184: FSM_ISSUE → FSM_IDLE (fifo_valid=0, collision=x, workers_ready=1101)
[FSM] Lock issued: (10,12) → dispatch to worker
[Dispatcher] Cycle 1845: Issued syndr (10, 12) to worker[0]
[Dispatcher] Cycle 1845: Worker[1] DONE (active=1, stored_coord=(16,6))
[MATRIX] Release at (16, 6) - cells cleared: (15-17, 5-7)
[FSM] Cycle 192: FSM_IDLE → FSM_HAZARD_CHK (fifo_valid=1, collision=x, workers_ready=1110)
[FSM] Cycle 193: FSM_HAZARD_CHK → FSM_STALL (fifo_valid=0, collision=1, workers_ready=1110)
[FSM] Collision check: (8,14) → collision=1
[Dispatcher] Cycle 1945: Worker[0] DONE (active=1, stored_coord=(10,12))
[MATRIX] Release at (10, 12) - cells cleared: (9-11, 11-13)
[FSM] Cycle 197: FSM_STALL → FSM_HAZARD_CHK (fifo_valid=0, collision=x, workers_ready=1111)
[FSM] Cycle 198: FSM_HAZARD_CHK → FSM_ISSUE (fifo_valid=0, collision=0, workers_ready=1111)
[FSM] Collision check: (8,14) → collision=0
[MATRIX] Lock at (8, 14) - cells set: (7-9, 13-15)
[FSM] Cycle 199: FSM_ISSUE → FSM_IDLE (fifo_valid=0, collision=x, workers_ready=1111)
[FSM] Lock issued: (8,14) → dispatch to worker
[Dispatcher] Cycle 1995: Issued syndr (8, 14) to worker[0]
[FSM] Cycle 202: FSM_IDLE → FSM_HAZARD_CHK (fifo_valid=1, collision=x, workers_ready=1110)
[FSM] Cycle 203: FSM_HAZARD_CHK → FSM_STALL (fifo_valid=0, collision=1, workers_ready=1110)
[FSM] Collision check: (10,14) → collision=1
[FSM] Cycle 204: FSM_STALL → FSM_HAZARD_CHK (fifo_valid=0, collision=x, workers_ready=1110)
[FSM] Cycle 205: FSM_HAZARD_CHK → FSM_STALL (fifo_valid=0, collision=1, workers_ready=1110)
[FSM] Collision check: (10,14) → collision=1
[FSM] Cycle 206: FSM_STALL → FSM_HAZARD_CHK (fifo_valid=0, collision=x, workers_ready=1110)
[FSM] Cycle 207: FSM_HAZARD_CHK → FSM_STALL (fifo_valid=0, collision=1, workers_ready=1110)
[FSM] Collision check: (10,14) → collision=1
[FSM] Cycle 208: FSM_STALL → FSM_HAZARD_CHK (fifo_valid=0, collision=x, workers_ready=1110)
[FSM] Cycle 209: FSM_HAZARD_CHK → FSM_STALL (fifo_valid=0, collision=1, workers_ready=1110)
[FSM] Collision check: (10,14) → collision=1
[Dispatcher] Cycle 2095: Worker[0] DONE (active=1, stored_coord=(8,14))
[MATRIX] Release at (8, 14) - cells cleared: (7-9, 13-15)
[FSM] Cycle 210: FSM_STALL → FSM_HAZARD_CHK (fifo_valid=0, collision=x, workers_ready=1111)
[FSM] Cycle 211: FSM_HAZARD_CHK → FSM_ISSUE (fifo_valid=0, collision=0, workers_ready=1111)
[FSM] Collision check: (10,14) → collision=0
[MATRIX] Lock at (10, 14) - cells set: (9-11, 13-15)
[FSM] Cycle 212: FSM_ISSUE → FSM_HAZARD_CHK (fifo_valid=1, collision=x, workers_ready=1111)
[FSM] Lock issued: (10,14) → dispatch to worker
[Dispatcher] Cycle 2125: Issued syndr (10, 14) to worker[0]
[FSM] Cycle 213: FSM_HAZARD_CHK → FSM_ISSUE (fifo_valid=0, collision=0, workers_ready=1110)
[FSM] Collision check: (0,16) → collision=0
[MATRIX] Lock at (0, 16) - cells set: (0-1, 15-17)
[FSM] Cycle 214: FSM_ISSUE → FSM_IDLE (fifo_valid=0, collision=x, workers_ready=1110)
[FSM] Lock issued: (0,16) → dispatch to worker
[Dispatcher] Cycle 2145: Issued syndr (0, 16) to worker[1]
[FSM] Cycle 222: FSM_IDLE → FSM_HAZARD_CHK (fifo_valid=1, collision=x, workers_ready=1100)
[Dispatcher] Cycle 2225: Worker[0] DONE (active=1, stored_coord=(10,14))
[MATRIX] Release at (10, 14) - cells cleared: (9-11, 13-15)
[FSM] Cycle 223: FSM_HAZARD_CHK → FSM_ISSUE (fifo_valid=0, collision=0, workers_ready=1101)
[FSM] Collision check: (20,18) → collision=0
[MATRIX] Lock at (20, 18) - cells set: (19-20, 17-19)
[FSM] Cycle 224: FSM_ISSUE → FSM_IDLE (fifo_valid=0, collision=x, workers_ready=1101)
[FSM] Lock issued: (20,18) → dispatch to worker
[Dispatcher] Cycle 2245: Issued syndr (20, 18) to worker[0]
[Dispatcher] Cycle 2245: Worker[1] DONE (active=1, stored_coord=(0,16))
[MATRIX] Release at (0, 16) - cells cleared: (0-1, 15-17)
[FSM] Cycle 232: FSM_IDLE → FSM_HAZARD_CHK (fifo_valid=1, collision=x, workers_ready=1110)
[FSM] Cycle 233: FSM_HAZARD_CHK → FSM_ISSUE (fifo_valid=0, collision=0, workers_ready=1110)
[FSM] Collision check: (2,22) → collision=0
[MATRIX] Lock at (2, 22) - cells set: (1-3, 21-22)
[FSM] Cycle 234: FSM_ISSUE → FSM_IDLE (fifo_valid=0, collision=x, workers_ready=1110)
[FSM] Lock issued: (2,22) → dispatch to worker
[Dispatcher] Cycle 2345: Issued syndr (2, 22) to worker[1]
[Dispatcher] Cycle 2345: Worker[0] DONE (active=1, stored_coord=(20,18))
[MATRIX] Release at (20, 18) - cells cleared: (19-20, 17-19)
[FSM] Cycle 242: FSM_IDLE → FSM_HAZARD_CHK (fifo_valid=1, collision=x, workers_ready=1101)
[FSM] Cycle 243: FSM_HAZARD_CHK → FSM_ISSUE (fifo_valid=0, collision=0, workers_ready=1101)
[FSM] Collision check: (14,4) → collision=0
[MATRIX] Lock at (14, 4) - cells set: (13-15, 3-5)
[FSM] Cycle 244: FSM_ISSUE → FSM_IDLE (fifo_valid=0, collision=x, workers_ready=1101)
[FSM] Lock issued: (14,4) → dispatch to worker
[Dispatcher] Cycle 2445: Issued syndr (14, 4) to worker[0]
[Dispatcher] Cycle 2445: Worker[1] DONE (active=1, stored_coord=(2,22))
[MATRIX] Release at (2, 22) - cells cleared: (1-3, 21-22)
[FSM] Cycle 252: FSM_IDLE → FSM_HAZARD_CHK (fifo_valid=1, collision=x, workers_ready=1110)
[FSM] Cycle 253: FSM_HAZARD_CHK → FSM_ISSUE (fifo_valid=0, collision=0, workers_ready=1110)
[FSM] Collision check: (8,12) → collision=0
[MATRIX] Lock at (8, 12) - cells set: (7-9, 11-13)
[FSM] Cycle 254: FSM_ISSUE → FSM_IDLE (fifo_valid=0, collision=x, workers_ready=1110)
[FSM] Lock issued: (8,12) → dispatch to worker
[Dispatcher] Cycle 2545: Issued syndr (8, 12) to worker[1]
[Dispatcher] Cycle 2545: Worker[0] DONE (active=1, stored_coord=(14,4))
[MATRIX] Release at (14, 4) - cells cleared: (13-15, 3-5)
[FSM] Cycle 262: FSM_IDLE → FSM_HAZARD_CHK (fifo_valid=1, collision=x, workers_ready=1101)
[FSM] Cycle 263: FSM_HAZARD_CHK → FSM_ISSUE (fifo_valid=0, collision=0, workers_ready=1101)
[FSM] Collision check: (20,18) → collision=0
[MATRIX] Lock at (20, 18) - cells set: (19-20, 17-19)
[FSM] Cycle 264: FSM_ISSUE → FSM_IDLE (fifo_valid=0, collision=x, workers_ready=1101)
[FSM] Lock issued: (20,18) → dispatch to worker
[Dispatcher] Cycle 2645: Issued syndr (20, 18) to worker[0]
[Dispatcher] Cycle 2645: Worker[1] DONE (active=1, stored_coord=(8,12))
[MATRIX] Release at (8, 12) - cells cleared: (7-9, 11-13)
[FSM] Cycle 272: FSM_IDLE → FSM_HAZARD_CHK (fifo_valid=1, collision=x, workers_ready=1110)
[FSM] Cycle 273: FSM_HAZARD_CHK → FSM_ISSUE (fifo_valid=0, collision=0, workers_ready=1110)
[FSM] Collision check: (14,4) → collision=0
[MATRIX] Lock at (14, 4) - cells set: (13-15, 3-5)
[FSM] Cycle 274: FSM_ISSUE → FSM_IDLE (fifo_valid=0, collision=x, workers_ready=1110)
[FSM] Lock issued: (14,4) → dispatch to worker
[Dispatcher] Cycle 2745: Issued syndr (14, 4) to worker[1]
[Dispatcher] Cycle 2745: Worker[0] DONE (active=1, stored_coord=(20,18))
[MATRIX] Release at (20, 18) - cells cleared: (19-20, 17-19)
[FSM] Cycle 282: FSM_IDLE → FSM_HAZARD_CHK (fifo_valid=1, collision=x, workers_ready=1101)
[FSM] Cycle 283: FSM_HAZARD_CHK → FSM_ISSUE (fifo_valid=0, collision=0, workers_ready=1101)
[FSM] Collision check: (14,18) → collision=0
[MATRIX] Lock at (14, 18) - cells set: (13-15, 17-19)
[FSM] Cycle 284: FSM_ISSUE → FSM_IDLE (fifo_valid=0, collision=x, workers_ready=1101)
[FSM] Lock issued: (14,18) → dispatch to worker
[Dispatcher] Cycle 2845: Issued syndr (14, 18) to worker[0]
[Dispatcher] Cycle 2845: Worker[1] DONE (active=1, stored_coord=(14,4))
[MATRIX] Release at (14, 4) - cells cleared: (13-15, 3-5)
[FSM] Cycle 292: FSM_IDLE → FSM_HAZARD_CHK (fifo_valid=1, collision=x, workers_ready=1110)
