batch_run/build_d11/log_K5_inj1.5_1.txt
Configuration: K=5, InjectRate=1.5, Run=1
--- XSIM STDOUT ---
Time resolution is 1 ps
[Stimulus] Loaded 221 syndrome pairs from D:\College\4-2\SoP2\Code\queuebit\verification\stim_errors.txt
[FSM] Cycle 3: FSM_IDLE → FSM_HAZARD_CHK (fifo_valid=1, collision=x, workers_ready=1111)
[FSM] Cycle 4: FSM_HAZARD_CHK → FSM_ISSUE (fifo_valid=1, collision=0, workers_ready=1111)
[FSM] Collision check: (2,6) → collision=0
[MATRIX] Lock at (2, 6) - cells set: (1-3, 5-7)
[FSM] Cycle 5: FSM_ISSUE → FSM_HAZARD_CHK (fifo_valid=1, collision=x, workers_ready=1111)
[FSM] Lock issued: (2,6) → dispatch to worker
[Dispatcher] Cycle 55: Issued syndr (2, 6) to worker[0]
[FSM] Cycle 6: FSM_HAZARD_CHK → FSM_STALL (fifo_valid=1, collision=1, workers_ready=1110)
[FSM] Collision check: (4,6) → collision=1
[FSM] Cycle 7: FSM_STALL → FSM_HAZARD_CHK (fifo_valid=1, collision=x, workers_ready=1110)
[FSM] Cycle 8: FSM_HAZARD_CHK → FSM_STALL (fifo_valid=1, collision=1, workers_ready=1110)
[FSM] Collision check: (4,6) → collision=1
[FSM] Cycle 9: FSM_STALL → FSM_HAZARD_CHK (fifo_valid=1, collision=x, workers_ready=1110)
[FSM] Cycle 10: FSM_HAZARD_CHK → FSM_STALL (fifo_valid=1, collision=1, workers_ready=1110)
[FSM] Collision check: (4,6) → collision=1
[Dispatcher] Cycle 105: Worker[0] DONE (active=1, stored_coord=(2,6))
[MATRIX] Release at (2, 6) - cells cleared: (1-3, 5-7)
[FSM] Cycle 11: FSM_STALL → FSM_HAZARD_CHK (fifo_valid=1, collision=x, workers_ready=1111)
[FSM] Cycle 12: FSM_HAZARD_CHK → FSM_ISSUE (fifo_valid=1, collision=0, workers_ready=1111)
[FSM] Collision check: (4,6) → collision=0
[MATRIX] Lock at (4, 6) - cells set: (3-5, 5-7)
[FSM] Cycle 13: FSM_ISSUE → FSM_HAZARD_CHK (fifo_valid=1, collision=x, workers_ready=1111)
[FSM] Lock issued: (4,6) → dispatch to worker
[Dispatcher] Cycle 135: Issued syndr (4, 6) to worker[0]
[FSM] Cycle 14: FSM_HAZARD_CHK → FSM_STALL (fifo_valid=1, collision=1, workers_ready=1110)
[FSM] Collision check: (2,8) → collision=1
[FSM] Cycle 15: FSM_STALL → FSM_HAZARD_CHK (fifo_valid=1, collision=x, workers_ready=1110)
[FSM] Cycle 16: FSM_HAZARD_CHK → FSM_STALL (fifo_valid=1, collision=1, workers_ready=1110)
[FSM] Collision check: (2,8) → collision=1
[FSM] Cycle 17: FSM_STALL → FSM_HAZARD_CHK (fifo_valid=1, collision=x, workers_ready=1110)
[FSM] Cycle 18: FSM_HAZARD_CHK → FSM_STALL (fifo_valid=1, collision=1, workers_ready=1110)
[FSM] Collision check: (2,8) → collision=1
[Dispatcher] Cycle 185: Worker[0] DONE (active=1, stored_coord=(4,6))
[MATRIX] Release at (4, 6) - cells cleared: (3-5, 5-7)
[FSM] Cycle 19: FSM_STALL → FSM_HAZARD_CHK (fifo_valid=1, collision=x, workers_ready=1111)
[FSM] Cycle 20: FSM_HAZARD_CHK → FSM_ISSUE (fifo_valid=1, collision=0, workers_ready=1111)
[FSM] Collision check: (2,8) → collision=0
[MATRIX] Lock at (2, 8) - cells set: (1-3, 7-9)
[FSM] Cycle 21: FSM_ISSUE → FSM_HAZARD_CHK (fifo_valid=1, collision=x, workers_ready=1111)
[FSM] Lock issued: (2,8) → dispatch to worker
[Dispatcher] Cycle 215: Issued syndr (2, 8) to worker[0]
[FSM] Cycle 22: FSM_HAZARD_CHK → FSM_STALL (fifo_valid=1, collision=1, workers_ready=1110)
[FSM] Collision check: (4,8) → collision=1
[FSM] Cycle 23: FSM_STALL → FSM_HAZARD_CHK (fifo_valid=1, collision=x, workers_ready=1110)
[FSM] Cycle 24: FSM_HAZARD_CHK → FSM_STALL (fifo_valid=1, collision=1, workers_ready=1110)
[FSM] Collision check: (4,8) → collision=1
[FSM] Cycle 25: FSM_STALL → FSM_HAZARD_CHK (fifo_valid=1, collision=x, workers_ready=1110)
[FSM] Cycle 26: FSM_HAZARD_CHK → FSM_STALL (fifo_valid=1, collision=1, workers_ready=1110)
[FSM] Collision check: (4,8) → collision=1
[Dispatcher] Cycle 265: Worker[0] DONE (active=1, stored_coord=(2,8))
[MATRIX] Release at (2, 8) - cells cleared: (1-3, 7-9)
[FSM] Cycle 27: FSM_STALL → FSM_HAZARD_CHK (fifo_valid=1, collision=x, workers_ready=1111)
[FSM] Cycle 28: FSM_HAZARD_CHK → FSM_ISSUE (fifo_valid=1, collision=0, workers_ready=1111)
[FSM] Collision check: (4,8) → collision=0
[MATRIX] Lock at (4, 8) - cells set: (3-5, 7-9)
[FSM] Cycle 29: FSM_ISSUE → FSM_HAZARD_CHK (fifo_valid=1, collision=x, workers_ready=1111)
[FSM] Lock issued: (4,8) → dispatch to worker
[Dispatcher] Cycle 295: Issued syndr (4, 8) to worker[0]
[FSM] Cycle 30: FSM_HAZARD_CHK → FSM_STALL (fifo_valid=1, collision=1, workers_ready=1110)
[FSM] Collision check: (4,10) → collision=1
[FSM] Cycle 31: FSM_STALL → FSM_HAZARD_CHK (fifo_valid=1, collision=x, workers_ready=1110)
[FSM] Cycle 32: FSM_HAZARD_CHK → FSM_STALL (fifo_valid=1, collision=1, workers_ready=1110)
[FSM] Collision check: (4,10) → collision=1
[FSM] Cycle 33: FSM_STALL → FSM_HAZARD_CHK (fifo_valid=1, collision=x, workers_ready=1110)
[FSM] Cycle 34: FSM_HAZARD_CHK → FSM_STALL (fifo_valid=1, collision=1, workers_ready=1110)
[FSM] Collision check: (4,10) → collision=1
[Dispatcher] Cycle 345: Worker[0] DONE (active=1, stored_coord=(4,8))
[MATRIX] Release at (4, 8) - cells cleared: (3-5, 7-9)
[FSM] Cycle 35: FSM_STALL → FSM_HAZARD_CHK (fifo_valid=1, collision=x, workers_ready=1111)
[FSM] Cycle 36: FSM_HAZARD_CHK → FSM_ISSUE (fifo_valid=1, collision=0, workers_ready=1111)
[FSM] Collision check: (4,10) → collision=0
[MATRIX] Lock at (4, 10) - cells set: (3-5, 9-11)
[FSM] Cycle 37: FSM_ISSUE → FSM_HAZARD_CHK (fifo_valid=1, collision=x, workers_ready=1111)
[FSM] Lock issued: (4,10) → dispatch to worker
[Dispatcher] Cycle 375: Issued syndr (4, 10) to worker[0]
[FSM] Cycle 38: FSM_HAZARD_CHK → FSM_STALL (fifo_valid=1, collision=1, workers_ready=1110)
[FSM] Collision check: (6,10) → collision=1
[FSM] Cycle 39: FSM_STALL → FSM_HAZARD_CHK (fifo_valid=1, collision=x, workers_ready=1110)
[FSM] Cycle 40: FSM_HAZARD_CHK → FSM_STALL (fifo_valid=1, collision=1, workers_ready=1110)
[FSM] Collision check: (6,10) → collision=1
[FSM] Cycle 41: FSM_STALL → FSM_HAZARD_CHK (fifo_valid=1, collision=x, workers_ready=1110)
[FSM] Cycle 42: FSM_HAZARD_CHK → FSM_STALL (fifo_valid=1, collision=1, workers_ready=1110)
[FSM] Collision check: (6,10) → collision=1
[Dispatcher] Cycle 425: Worker[0] DONE (active=1, stored_coord=(4,10))
[MATRIX] Release at (4, 10) - cells cleared: (3-5, 9-11)
[FSM] Cycle 43: FSM_STALL → FSM_HAZARD_CHK (fifo_valid=1, collision=x, workers_ready=1111)
[FSM] Cycle 44: FSM_HAZARD_CHK → FSM_ISSUE (fifo_valid=1, collision=0, workers_ready=1111)
[FSM] Collision check: (6,10) → collision=0
[MATRIX] Lock at (6, 10) - cells set: (5-7, 9-11)
[FSM] Cycle 45: FSM_ISSUE → FSM_HAZARD_CHK (fifo_valid=1, collision=x, workers_ready=1111)
[FSM] Lock issued: (6,10) → dispatch to worker
[Dispatcher] Cycle 455: Issued syndr (6, 10) to worker[0]
[FSM] Cycle 46: FSM_HAZARD_CHK → FSM_ISSUE (fifo_valid=1, collision=0, workers_ready=1110)
[FSM] Collision check: (2,12) → collision=0
[MATRIX] Lock at (2, 12) - cells set: (1-3, 11-13)
[FSM] Cycle 47: FSM_ISSUE → FSM_HAZARD_CHK (fifo_valid=1, collision=x, workers_ready=1110)
[FSM] Lock issued: (2,12) → dispatch to worker
[Dispatcher] Cycle 475: Issued syndr (2, 12) to worker[1]
[FSM] Cycle 48: FSM_HAZARD_CHK → FSM_STALL (fifo_valid=1, collision=1, workers_ready=1100)
[FSM] Collision check: (4,12) → collision=1
[FSM] Cycle 49: FSM_STALL → FSM_HAZARD_CHK (fifo_valid=1, collision=x, workers_ready=1100)
[FSM] Cycle 50: FSM_HAZARD_CHK → FSM_STALL (fifo_valid=1, collision=1, workers_ready=1100)
[FSM] Collision check: (4,12) → collision=1
[Dispatcher] Cycle 505: Worker[0] DONE (active=1, stored_coord=(6,10))
[MATRIX] Release at (6, 10) - cells cleared: (5-7, 9-11)
[FSM] Cycle 51: FSM_STALL → FSM_HAZARD_CHK (fifo_valid=1, collision=x, workers_ready=1101)
[FSM] Cycle 52: FSM_HAZARD_CHK → FSM_STALL (fifo_valid=1, collision=1, workers_ready=1101)
[FSM] Collision check: (4,12) → collision=1
[Dispatcher] Cycle 525: Worker[1] DONE (active=1, stored_coord=(2,12))
[MATRIX] Release at (2, 12) - cells cleared: (1-3, 11-13)
[FSM] Cycle 53: FSM_STALL → FSM_HAZARD_CHK (fifo_valid=1, collision=x, workers_ready=1111)
[FSM] Cycle 54: FSM_HAZARD_CHK → FSM_ISSUE (fifo_valid=1, collision=0, workers_ready=1111)
[FSM] Collision check: (4,12) → collision=0
[MATRIX] Lock at (4, 12) - cells set: (3-5, 11-13)
[FSM] Cycle 55: FSM_ISSUE → FSM_HAZARD_CHK (fifo_valid=1, collision=x, workers_ready=1111)
[FSM] Lock issued: (4,12) → dispatch to worker
[Dispatcher] Cycle 555: Issued syndr (4, 12) to worker[0]
[FSM] Cycle 56: FSM_HAZARD_CHK → FSM_ISSUE (fifo_valid=1, collision=0, workers_ready=1110)
[FSM] Collision check: (14,10) → collision=0
[MATRIX] Lock at (14, 10) - cells set: (13-15, 9-11)
[FSM] Cycle 57: FSM_ISSUE → FSM_HAZARD_CHK (fifo_valid=1, collision=x, workers_ready=1110)
[FSM] Lock issued: (14,10) → dispatch to worker
[Dispatcher] Cycle 575: Issued syndr (14, 10) to worker[1]
[FSM] Cycle 58: FSM_HAZARD_CHK → FSM_STALL (fifo_valid=1, collision=1, workers_ready=1100)
[FSM] Collision check: (16,10) → collision=1
[FSM] Cycle 59: FSM_STALL → FSM_HAZARD_CHK (fifo_valid=1, collision=x, workers_ready=1100)
[FSM] Cycle 60: FSM_HAZARD_CHK → FSM_STALL (fifo_valid=1, collision=1, workers_ready=1100)
[FSM] Collision check: (16,10) → collision=1
[Dispatcher] Cycle 605: Worker[0] DONE (active=1, stored_coord=(4,12))
[MATRIX] Release at (4, 12) - cells cleared: (3-5, 11-13)
[FSM] Cycle 61: FSM_STALL → FSM_HAZARD_CHK (fifo_valid=1, collision=x, workers_ready=1101)
[FSM] Cycle 62: FSM_HAZARD_CHK → FSM_STALL (fifo_valid=1, collision=1, workers_ready=1101)
[FSM] Collision check: (16,10) → collision=1
[Dispatcher] Cycle 625: Worker[1] DONE (active=1, stored_coord=(14,10))
[MATRIX] Release at (14, 10) - cells cleared: (13-15, 9-11)
[FSM] Cycle 63: FSM_STALL → FSM_HAZARD_CHK (fifo_valid=1, collision=x, workers_ready=1111)
[FSM] Cycle 64: FSM_HAZARD_CHK → FSM_ISSUE (fifo_valid=1, collision=0, workers_ready=1111)
[FSM] Collision check: (16,10) → collision=0
[MATRIX] Lock at (16, 10) - cells set: (15-17, 9-11)
[FSM] Cycle 65: FSM_ISSUE → FSM_HAZARD_CHK (fifo_valid=1, collision=x, workers_ready=1111)
[FSM] Lock issued: (16,10) → dispatch to worker
[Dispatcher] Cycle 655: Issued syndr (16, 10) to worker[0]
[FSM] Cycle 66: FSM_HAZARD_CHK → FSM_ISSUE (fifo_valid=1, collision=0, workers_ready=1110)
[FSM] Collision check: (6,12) → collision=0
[MATRIX] Lock at (6, 12) - cells set: (5-7, 11-13)
[FSM] Cycle 67: FSM_ISSUE → FSM_HAZARD_CHK (fifo_valid=1, collision=x, workers_ready=1110)
[FSM] Lock issued: (6,12) → dispatch to worker
[Dispatcher] Cycle 675: Issued syndr (6, 12) to worker[1]
[FSM] Cycle 68: FSM_HAZARD_CHK → FSM_STALL (fifo_valid=1, collision=1, workers_ready=1100)
[FSM] Collision check: (14,12) → collision=1
[FSM] Cycle 69: FSM_STALL → FSM_HAZARD_CHK (fifo_valid=1, collision=x, workers_ready=1100)
[FSM] Cycle 70: FSM_HAZARD_CHK → FSM_STALL (fifo_valid=1, collision=1, workers_ready=1100)
[FSM] Collision check: (14,12) → collision=1
[Dispatcher] Cycle 705: Worker[0] DONE (active=1, stored_coord=(16,10))
[MATRIX] Release at (16, 10) - cells cleared: (15-17, 9-11)
[FSM] Cycle 71: FSM_STALL → FSM_HAZARD_CHK (fifo_valid=1, collision=x, workers_ready=1101)
[FSM] Cycle 72: FSM_HAZARD_CHK → FSM_ISSUE (fifo_valid=1, collision=0, workers_ready=1101)
[FSM] Collision check: (14,12) → collision=0
[Dispatcher] Cycle 725: Worker[1] DONE (active=1, stored_coord=(6,12))
[MATRIX] Lock at (14, 12) - cells set: (13-15, 11-13)
[MATRIX] Release at (6, 12) - cells cleared: (5-7, 11-13)
Warning: [MATRIX] Both LOCK and RELEASE asserted same cycle - lock takes priority!
Time: 735 ns  Iteration: 0  Process: /tb_dispatcher_integration(INJECT_RATE_PPT=1500)/dut/matrix_inst/Always133_26  Scope: tb_dispatcher_integration(INJECT_RATE_PPT=1500).dut.matrix_inst  File: D:/College/4-2/SoP2/Code/queuebit/rtl/tracking_matrix.sv Line: 153
[FSM] Cycle 73: FSM_ISSUE → FSM_HAZARD_CHK (fifo_valid=1, collision=x, workers_ready=1111)
[FSM] Lock issued: (14,12) → dispatch to worker
[Dispatcher] Cycle 735: Issued syndr (14, 12) to worker[0]
[FSM] Cycle 74: FSM_HAZARD_CHK → FSM_ISSUE (fifo_valid=1, collision=0, workers_ready=1110)
[FSM] Collision check: (4,14) → collision=0
[MATRIX] Lock at (4, 14) - cells set: (3-5, 13-15)
[FSM] Cycle 75: FSM_ISSUE → FSM_HAZARD_CHK (fifo_valid=1, collision=x, workers_ready=1110)
[FSM] Lock issued: (4,14) → dispatch to worker
[Dispatcher] Cycle 755: Issued syndr (4, 14) to worker[1]
[FSM] Cycle 76: FSM_HAZARD_CHK → FSM_ISSUE (fifo_valid=1, collision=0, workers_ready=1100)
[FSM] Collision check: (16,6) → collision=0
[MATRIX] Lock at (16, 6) - cells set: (15-17, 5-7)
[FSM] Cycle 77: FSM_ISSUE → FSM_HAZARD_CHK (fifo_valid=1, collision=x, workers_ready=1100)
[FSM] Lock issued: (16,6) → dispatch to worker
[Dispatcher] Cycle 775: Issued syndr (16, 6) to worker[2]
[FSM] Cycle 78: FSM_HAZARD_CHK → FSM_STALL (fifo_valid=1, collision=1, workers_ready=1000)
[FSM] Collision check: (14,10) → collision=1
[Dispatcher] Cycle 785: Worker[0] DONE (active=1, stored_coord=(14,12))
[MATRIX] Release at (14, 12) - cells cleared: (13-15, 11-13)
[FSM] Cycle 79: FSM_STALL → FSM_HAZARD_CHK (fifo_valid=1, collision=x, workers_ready=1001)
[FSM] Cycle 80: FSM_HAZARD_CHK → FSM_ISSUE (fifo_valid=1, collision=0, workers_ready=1001)
[FSM] Collision check: (14,10) → collision=0
[Dispatcher] Cycle 805: Worker[1] DONE (active=1, stored_coord=(4,14))
[MATRIX] Lock at (14, 10) - cells set: (13-15, 9-11)
[MATRIX] Release at (4, 14) - cells cleared: (3-5, 13-15)
Warning: [MATRIX] Both LOCK and RELEASE asserted same cycle - lock takes priority!
Time: 815 ns  Iteration: 0  Process: /tb_dispatcher_integration(INJECT_RATE_PPT=1500)/dut/matrix_inst/Always133_26  Scope: tb_dispatcher_integration(INJECT_RATE_PPT=1500).dut.matrix_inst  File: D:/College/4-2/SoP2/Code/queuebit/rtl/tracking_matrix.sv Line: 153
[FSM] Cycle 81: FSM_ISSUE → FSM_HAZARD_CHK (fifo_valid=1, collision=x, workers_ready=1011)
[FSM] Lock issued: (14,10) → dispatch to worker
[Dispatcher] Cycle 815: Issued syndr (14, 10) to worker[0]
[FSM] Cycle 82: FSM_HAZARD_CHK → FSM_ISSUE (fifo_valid=1, collision=0, workers_ready=1010)
[FSM] Collision check: (2,22) → collision=0
[Dispatcher] Cycle 825: Worker[2] DONE (active=1, stored_coord=(16,6))
[MATRIX] Lock at (2, 22) - cells set: (1-3, 21-22)
[MATRIX] Release at (16, 6) - cells cleared: (15-17, 5-7)
Warning: [MATRIX] Both LOCK and RELEASE asserted same cycle - lock takes priority!
Time: 835 ns  Iteration: 0  Process: /tb_dispatcher_integration(INJECT_RATE_PPT=1500)/dut/matrix_inst/Always133_26  Scope: tb_dispatcher_integration(INJECT_RATE_PPT=1500).dut.matrix_inst  File: D:/College/4-2/SoP2/Code/queuebit/rtl/tracking_matrix.sv Line: 153
[FSM] Cycle 83: FSM_ISSUE → FSM_HAZARD_CHK (fifo_valid=1, collision=x, workers_ready=1110)
[FSM] Lock issued: (2,22) → dispatch to worker
[Dispatcher] Cycle 835: Issued syndr (2, 22) to worker[1]
[FSM] Cycle 84: FSM_HAZARD_CHK → FSM_ISSUE (fifo_valid=1, collision=0, workers_ready=1100)
[FSM] Collision check: (16,6) → collision=0
[MATRIX] Lock at (16, 6) - cells set: (15-17, 5-7)
[FSM] Cycle 85: FSM_ISSUE → FSM_HAZARD_CHK (fifo_valid=1, collision=x, workers_ready=1100)
[FSM] Lock issued: (16,6) → dispatch to worker
[Dispatcher] Cycle 855: Issued syndr (16, 6) to worker[2]
[FSM] Cycle 86: FSM_HAZARD_CHK → FSM_ISSUE (fifo_valid=1, collision=0, workers_ready=1000)
[FSM] Collision check: (10,12) → collision=0
[Dispatcher] Cycle 865: Worker[0] DONE (active=1, stored_coord=(14,10))
[MATRIX] Lock at (10, 12) - cells set: (9-11, 11-13)
[MATRIX] Release at (14, 10) - cells cleared: (13-15, 9-11)
Warning: [MATRIX] Both LOCK and RELEASE asserted same cycle - lock takes priority!
Time: 875 ns  Iteration: 0  Process: /tb_dispatcher_integration(INJECT_RATE_PPT=1500)/dut/matrix_inst/Always133_26  Scope: tb_dispatcher_integration(INJECT_RATE_PPT=1500).dut.matrix_inst  File: D:/College/4-2/SoP2/Code/queuebit/rtl/tracking_matrix.sv Line: 153
[FSM] Cycle 87: FSM_ISSUE → FSM_HAZARD_CHK (fifo_valid=1, collision=x, workers_ready=1001)
[FSM] Lock issued: (10,12) → dispatch to worker
[Dispatcher] Cycle 875: Issued syndr (10, 12) to worker[0]
[FSM] Cycle 88: FSM_HAZARD_CHK → FSM_STALL (fifo_valid=1, collision=1, workers_ready=1000)
[FSM] Collision check: (8,14) → collision=1
[Dispatcher] Cycle 885: Worker[1] DONE (active=1, stored_coord=(2,22))
[MATRIX] Release at (2, 22) - cells cleared: (1-3, 21-22)
[FSM] Cycle 89: FSM_STALL → FSM_HAZARD_CHK (fifo_valid=1, collision=x, workers_ready=1010)
[FSM] Cycle 90: FSM_HAZARD_CHK → FSM_STALL (fifo_valid=1, collision=1, workers_ready=1010)
[FSM] Collision check: (8,14) → collision=1
[Dispatcher] Cycle 905: Worker[2] DONE (active=1, stored_coord=(16,6))
[MATRIX] Release at (16, 6) - cells cleared: (15-17, 5-7)
[FSM] Cycle 91: FSM_STALL → FSM_HAZARD_CHK (fifo_valid=1, collision=x, workers_ready=1110)
[FSM] Cycle 92: FSM_HAZARD_CHK → FSM_STALL (fifo_valid=1, collision=1, workers_ready=1110)
[FSM] Collision check: (8,14) → collision=1
[Dispatcher] Cycle 925: Worker[0] DONE (active=1, stored_coord=(10,12))
[MATRIX] Release at (10, 12) - cells cleared: (9-11, 11-13)
[FSM] Cycle 93: FSM_STALL → FSM_HAZARD_CHK (fifo_valid=1, collision=x, workers_ready=1111)
[FSM] Cycle 94: FSM_HAZARD_CHK → FSM_ISSUE (fifo_valid=1, collision=0, workers_ready=1111)
[FSM] Collision check: (8,14) → collision=0
[MATRIX] Lock at (8, 14) - cells set: (7-9, 13-15)
[FSM] Cycle 95: FSM_ISSUE → FSM_HAZARD_CHK (fifo_valid=1, collision=x, workers_ready=1111)
[FSM] Lock issued: (8,14) → dispatch to worker
[Dispatcher] Cycle 955: Issued syndr (8, 14) to worker[0]
[FSM] Cycle 96: FSM_HAZARD_CHK → FSM_STALL (fifo_valid=1, collision=1, workers_ready=1110)
[FSM] Collision check: (10,14) → collision=1
[FSM] Cycle 97: FSM_STALL → FSM_HAZARD_CHK (fifo_valid=1, collision=x, workers_ready=1110)
[FSM] Cycle 98: FSM_HAZARD_CHK → FSM_STALL (fifo_valid=1, collision=1, workers_ready=1110)
[FSM] Collision check: (10,14) → collision=1
[FSM] Cycle 99: FSM_STALL → FSM_HAZARD_CHK (fifo_valid=1, collision=x, workers_ready=1110)
[FSM] Cycle 100: FSM_HAZARD_CHK → FSM_STALL (fifo_valid=1, collision=1, workers_ready=1110)
[FSM] Collision check: (10,14) → collision=1
[Dispatcher] Cycle 1005: Worker[0] DONE (active=1, stored_coord=(8,14))
[MATRIX] Release at (8, 14) - cells cleared: (7-9, 13-15)
[FSM] Cycle 101: FSM_STALL → FSM_HAZARD_CHK (fifo_valid=1, collision=x, workers_ready=1111)
[FSM] Cycle 102: FSM_HAZARD_CHK → FSM_ISSUE (fifo_valid=1, collision=0, workers_ready=1111)
[FSM] Collision check: (10,14) → collision=0
[MATRIX] Lock at (10, 14) - cells set: (9-11, 13-15)
[FSM] Cycle 103: FSM_ISSUE → FSM_HAZARD_CHK (fifo_valid=1, collision=x, workers_ready=1111)
[FSM] Lock issued: (10,14) → dispatch to worker
[Dispatcher] Cycle 1035: Issued syndr (10, 14) to worker[0]
[FSM] Cycle 104: FSM_HAZARD_CHK → FSM_ISSUE (fifo_valid=1, collision=0, workers_ready=1110)
[FSM] Collision check: (0,16) → collision=0
[MATRIX] Lock at (0, 16) - cells set: (0-1, 15-17)
[FSM] Cycle 105: FSM_ISSUE → FSM_HAZARD_CHK (fifo_valid=1, collision=x, workers_ready=1110)
[FSM] Lock issued: (0,16) → dispatch to worker
[Dispatcher] Cycle 1055: Issued syndr (0, 16) to worker[1]
[FSM] Cycle 106: FSM_HAZARD_CHK → FSM_ISSUE (fifo_valid=1, collision=0, workers_ready=1100)
[FSM] Collision check: (20,18) → collision=0
[MATRIX] Lock at (20, 18) - cells set: (19-20, 17-19)
[FSM] Cycle 107: FSM_ISSUE → FSM_HAZARD_CHK (fifo_valid=1, collision=x, workers_ready=1100)
[FSM] Lock issued: (20,18) → dispatch to worker
[Dispatcher] Cycle 1075: Issued syndr (20, 18) to worker[2]
[FSM] Cycle 108: FSM_HAZARD_CHK → FSM_ISSUE (fifo_valid=1, collision=0, workers_ready=1000)
[FSM] Collision check: (2,22) → collision=0
[Dispatcher] Cycle 1085: Worker[0] DONE (active=1, stored_coord=(10,14))
[MATRIX] Lock at (2, 22) - cells set: (1-3, 21-22)
[MATRIX] Release at (10, 14) - cells cleared: (9-11, 13-15)
Warning: [MATRIX] Both LOCK and RELEASE asserted same cycle - lock takes priority!
Time: 1095 ns  Iteration: 0  Process: /tb_dispatcher_integration(INJECT_RATE_PPT=1500)/dut/matrix_inst/Always133_26  Scope: tb_dispatcher_integration(INJECT_RATE_PPT=1500).dut.matrix_inst  File: D:/College/4-2/SoP2/Code/queuebit/rtl/tracking_matrix.sv Line: 153
[FSM] Cycle 109: FSM_ISSUE → FSM_HAZARD_CHK (fifo_valid=1, collision=x, workers_ready=1001)
[FSM] Lock issued: (2,22) → dispatch to worker
[Dispatcher] Cycle 1095: Issued syndr (2, 22) to worker[0]
[FSM] Cycle 110: FSM_HAZARD_CHK → FSM_ISSUE (fifo_valid=1, collision=0, workers_ready=1000)
[FSM] Collision check: (14,4) → collision=0
[Dispatcher] Cycle 1105: Worker[1] DONE (active=1, stored_coord=(0,16))
[MATRIX] Lock at (14, 4) - cells set: (13-15, 3-5)
[MATRIX] Release at (0, 16) - cells cleared: (0-1, 15-17)
Warning: [MATRIX] Both LOCK and RELEASE asserted same cycle - lock takes priority!
Time: 1115 ns  Iteration: 0  Process: /tb_dispatcher_integration(INJECT_RATE_PPT=1500)/dut/matrix_inst/Always133_26  Scope: tb_dispatcher_integration(INJECT_RATE_PPT=1500).dut.matrix_inst  File: D:/College/4-2/SoP2/Code/queuebit/rtl/tracking_matrix.sv Line: 153
[FSM] Cycle 111: FSM_ISSUE → FSM_HAZARD_CHK (fifo_valid=1, collision=x, workers_ready=1010)
[FSM] Lock issued: (14,4) → dispatch to worker
[Dispatcher] Cycle 1115: Issued syndr (14, 4) to worker[1]
[FSM] Cycle 112: FSM_HAZARD_CHK → FSM_ISSUE (fifo_valid=1, collision=0, workers_ready=1000)
[FSM] Collision check: (8,12) → collision=0
[Dispatcher] Cycle 1125: Worker[2] DONE (active=1, stored_coord=(20,18))
[MATRIX] Lock at (8, 12) - cells set: (7-9, 11-13)
[MATRIX] Release at (20, 18) - cells cleared: (19-20, 17-19)
Warning: [MATRIX] Both LOCK and RELEASE asserted same cycle - lock takes priority!
Time: 1135 ns  Iteration: 0  Process: /tb_dispatcher_integration(INJECT_RATE_PPT=1500)/dut/matrix_inst/Always133_26  Scope: tb_dispatcher_integration(INJECT_RATE_PPT=1500).dut.matrix_inst  File: D:/College/4-2/SoP2/Code/queuebit/rtl/tracking_matrix.sv Line: 153
[FSM] Cycle 113: FSM_ISSUE → FSM_HAZARD_CHK (fifo_valid=1, collision=x, workers_ready=1100)
[FSM] Lock issued: (8,12) → dispatch to worker
[Dispatcher] Cycle 1135: Issued syndr (8, 12) to worker[2]
[FSM] Cycle 114: FSM_HAZARD_CHK → FSM_ISSUE (fifo_valid=1, collision=0, workers_ready=1000)
[FSM] Collision check: (20,18) → collision=0
[Dispatcher] Cycle 1145: Worker[0] DONE (active=1, stored_coord=(2,22))
[MATRIX] Lock at (20, 18) - cells set: (19-20, 17-19)
[MATRIX] Release at (2, 22) - cells cleared: (1-3, 21-22)
Warning: [MATRIX] Both LOCK and RELEASE asserted same cycle - lock takes priority!
Time: 1155 ns  Iteration: 0  Process: /tb_dispatcher_integration(INJECT_RATE_PPT=1500)/dut/matrix_inst/Always133_26  Scope: tb_dispatcher_integration(INJECT_RATE_PPT=1500).dut.matrix_inst  File: D:/College/4-2/SoP2/Code/queuebit/rtl/tracking_matrix.sv Line: 153
[FSM] Cycle 115: FSM_ISSUE → FSM_HAZARD_CHK (fifo_valid=1, collision=x, workers_ready=1001)
[FSM] Lock issued: (20,18) → dispatch to worker
[Dispatcher] Cycle 1155: Issued syndr (20, 18) to worker[0]
[FSM] Cycle 116: FSM_HAZARD_CHK → FSM_STALL (fifo_valid=1, collision=1, workers_ready=1000)
[FSM] Collision check: (14,4) → collision=1
[Dispatcher] Cycle 1165: Worker[1] DONE (active=1, stored_coord=(14,4))
[MATRIX] Release at (14, 4) - cells cleared: (13-15, 3-5)
[FSM] Cycle 117: FSM_STALL → FSM_HAZARD_CHK (fifo_valid=1, collision=x, workers_ready=1010)
[FSM] Cycle 118: FSM_HAZARD_CHK → FSM_ISSUE (fifo_valid=1, collision=0, workers_ready=1010)
[FSM] Collision check: (14,4) → collision=0
[Dispatcher] Cycle 1185: Worker[2] DONE (active=1, stored_coord=(8,12))
[MATRIX] Lock at (14, 4) - cells set: (13-15, 3-5)
[MATRIX] Release at (8, 12) - cells cleared: (7-9, 11-13)
Warning: [MATRIX] Both LOCK and RELEASE asserted same cycle - lock takes priority!
Time: 1195 ns  Iteration: 0  Process: /tb_dispatcher_integration(INJECT_RATE_PPT=1500)/dut/matrix_inst/Always133_26  Scope: tb_dispatcher_integration(INJECT_RATE_PPT=1500).dut.matrix_inst  File: D:/College/4-2/SoP2/Code/queuebit/rtl/tracking_matrix.sv Line: 153
[FSM] Cycle 119: FSM_ISSUE → FSM_HAZARD_CHK (fifo_valid=1, collision=x, workers_ready=1110)
[FSM] Lock issued: (14,4) → dispatch to worker
[Dispatcher] Cycle 1195: Issued syndr (14, 4) to worker[1]
[FSM] Cycle 120: FSM_HAZARD_CHK → FSM_ISSUE (fifo_valid=1, collision=0, workers_ready=1100)
[FSM] Collision check: (14,18) → collision=0
[Dispatcher] Cycle 1205: Worker[0] DONE (active=1, stored_coord=(20,18))
[MATRIX] Lock at (14, 18) - cells set: (13-15, 17-19)
[MATRIX] Release at (20, 18) - cells cleared: (19-20, 17-19)
Warning: [MATRIX] Both LOCK and RELEASE asserted same cycle - lock takes priority!
Time: 1215 ns  Iteration: 0  Process: /tb_dispatcher_integration(INJECT_RATE_PPT=1500)/dut/matrix_inst/Always133_26  Scope: tb_dispatcher_integration(INJECT_RATE_PPT=1500).dut.matrix_inst  File: D:/College/4-2/SoP2/Code/queuebit/rtl/tracking_matrix.sv Line: 153
[FSM] Cycle 121: FSM_ISSUE → FSM_HAZARD_CHK (fifo_valid=1, collision=x, workers_ready=1101)
[FSM] Lock issued: (14,18) → dispatch to worker
[Dispatcher] Cycle 1215: Issued syndr (14, 18) to worker[0]
[FSM] Cycle 122: FSM_HAZARD_CHK → FSM_STALL (fifo_valid=1, collision=1, workers_ready=1100)
[FSM] Collision check: (16,20) → collision=1
[FSM] Cycle 123: FSM_STALL → FSM_HAZARD_CHK (fifo_valid=1, collision=x, workers_ready=1100)
